<svg class="wmp-icon wmp-icon__tick" xmlns="http://www.w3.org/2000/svg" viewBox="0 0 24 24" aria-hidden="true" fill="none">
  <path stroke-width="4" stroke-linecap="round" stroke="#007f3b" d="M18.4 7.8l-8.5 8.4L5.6 12"></path>
</svg>
