<?xml version="1.0" encoding="utf-8"?>
<!-- Generator: Adobe Illustrator 23.0.6, SVG Export Plug-In . SVG Version: 6.00 Build 0)  -->
<svg version="1.1" id="Layer_1" xmlns="http://www.w3.org/2000/svg" xmlns:xlink="http://www.w3.org/1999/xlink" x="0px" y="0px"
	 viewBox="0 0 141.73 141.73" style="enable-background:new 0 0 141.73 141.73;" xml:space="preserve">
<style type="text/css">
	.st0{fill:#004996;stroke:#FFFFFF;stroke-width:0.625;}
	.st1{fill:#004996;}
	.st2{fill:#FFFFFF;}
	.st3{fill:#FBBA07;}
	.st4{fill:#E63027;}
	.st5{fill:#808080;}
	.st6{fill:#B3B3B3;}
	.st7{stroke:#000000;stroke-width:0.0625;}
	.st8{fill:#FFFFFF;stroke:#000000;stroke-width:0.0625;}
</style>
<path class="st0" d="M77.61,29.92c0.94,0.21,1.86,0.62,2.77,0.98c1.06,0.53,2.21,0.93,3.18,1.61c0.21-0.02,0.29,0.16,0.46,0.23
	c5.44,3.13,9.93,8.08,12.99,13.51c1.84,3.09,3.16,6.54,4.13,9.98c0.07,0.19,0.09,0.39,0.2,0.55c0,0.48,0.22,0.78,0.26,1.24
	l0.06,0.06c0.12,1.12,0.55,2.12,0.64,3.26c0.14,0.18,0.07,0.46,0.17,0.66c0.09,1.32,0.41,2.66,0.43,4.01l0.06,0.06
	c0.09,2.45,0.19,4.79,0.02,7.13c-0.1,1.83-0.34,3.71-0.57,5.48c-0.2,0.39-0.08,0.79-0.26,1.19c0.01,0.24-0.12,0.54-0.11,0.77
	c-0.12,0.23-0.12,0.53-0.18,0.75c-0.27,0.98-0.45,1.93-0.77,2.95c-0.41,1.37-0.92,2.81-1.48,4.12c0.01,0.12-0.12,0.29-0.17,0.41
	c-0.51,1.33-1.22,2.61-1.88,3.89c-2.83,5.36-7.2,10.4-12.52,13.62c-4.07,2.45-8.51,3.9-13.48,4.1c-2.59,0.02-5.17-0.24-7.53-0.84
	c-0.15-0.05-0.32-0.14-0.46-0.12c-1.32-0.38-2.55-0.79-3.75-1.36h-0.12c-2.32-1.06-4.5-2.29-6.49-3.96
	c-0.26-0.15-0.56-0.42-0.81-0.61c-0.83-0.73-1.89-1.64-2.6-2.45c-0.81-0.83-1.7-1.76-2.48-2.71c-0.01-0.14-0.2-0.27-0.29-0.38
	c-0.76-1.02-1.39-1.89-2.14-2.94c-0.1-0.24-0.29-0.37-0.38-0.61c-0.09-0.09-0.14-0.25-0.2-0.38c-0.47-0.69-0.92-1.54-1.36-2.31
	c-0.55-0.98-1.08-2.03-1.51-3.06c-0.15-0.04-0.04-0.25-0.2-0.32c-0.01-0.06-0.04-0.19-0.11-0.26c-0.24-0.71-0.58-1.37-0.81-2.07
	c-0.19-0.49-0.31-1-0.54-1.48c-0.12-0.73-0.46-1.36-0.58-2.08c-0.14-0.36-0.19-0.75-0.29-1.12c-0.11-0.26-0.14-0.61-0.26-0.89
	c-0.11-0.62-0.22-1.26-0.34-1.88l-0.06-0.06c-0.08-0.65-0.22-1.27-0.29-1.93c-0.14-0.25-0.08-0.59-0.14-0.87
	c-0.55-3.57-0.67-7.24-0.35-10.71c0.08-1.08,0.29-2.31,0.38-3.38c0.03-0.27,0.12-0.58,0.18-0.87c0.07-0.43,0.09-0.85,0.2-1.3
	c0.11-0.24,0.14-0.69,0.21-0.98c0.38-1.74,0.78-3.38,1.36-5.08c0.15-0.64,0.51-1.27,0.72-1.93l-0.03-0.03
	c0.43-0.86,0.77-1.88,1.28-2.77l-0.03-0.03c0.57-1.03,1.06-2.13,1.67-3.11c2.19-3.72,4.85-7.1,8.11-9.84
	c2.77-2.34,5.81-4.18,9.14-5.4c1.85-0.74,3.84-1.14,5.86-1.44c3.15-0.38,6.23-0.23,9.24,0.44C76.35,29.59,77.01,29.67,77.61,29.92z"
	/>
<path class="st1" d="M76.31,34.1c0.5,0.11,0.93,0.54,1.04,1.04c0.29,0.91-0.1,1.74-0.49,2.48c-0.27,0.35-0.67,0.68-1.16,0.75
	c-0.51-0.02-0.91-0.14-1.36-0.26c-0.03-0.29,0.18-0.59,0.18-0.86c0.09-0.17,0.07-0.39,0.2-0.55c0.1-0.81,0.47-1.61,0.64-2.39
	c0.1-0.13,0.02-0.35,0.17-0.44C75.75,34.03,76.1,33.89,76.31,34.1z"/>
<path class="st2" d="M76.08,43.02c0.13-0.04,0.22,0.07,0.29,0.12c3.64,1.61,6.85,4.71,9.04,8.02c0.77,1.21,1.52,2.44,2.11,3.78
	c0.28,0.56,0.53,1.12,0.75,1.7c0.75,1.78,1.34,3.68,1.73,5.63c0.12,0.25,0.11,0.56,0.23,0.81c0.15,0.61,0.14,1.28,0.26,1.91
	l0.06,0.06c0.06,0.62,0.11,1.29,0.18,1.88l0.06,0.06c0.11,2.17,0.17,4.42-0.06,6.56c0.02,0.72-0.14,1.25-0.21,1.93
	c-0.14,1.33-0.38,2.5-0.69,3.75c-1.21,4.95-3.43,9.36-6.96,13.19c-1.85,1.91-4.05,3.48-6.43,4.53c-0.58,0.25-1.18,0.44-1.79,0.61
	c-0.29,0.17-0.67,0.13-0.98,0.26c-0.67,0.14-1.41,0.3-2.16,0.31l-0.06,0.06c-1.68,0.08-3.14-0.09-4.65-0.41
	C61,96.44,56.33,92.12,53.28,86.89c-1.16-2.04-2.09-4.24-2.71-6.53c-0.16-0.24-0.16-0.55-0.29-0.81c-0.99-3.61-1.46-7.66-1.36-11.4
	c0.1-2.39,0.41-4.94,0.95-7.22c0.71-2.68,1.6-5.26,2.91-7.73c-0.02-0.16,0.14-0.24,0.21-0.41c2.32-4.24,6.26-8.44,10.97-10.07
	c0.54-0.3,1.17-0.42,1.76-0.61c0.74-0.17,1.58-0.31,2.4-0.38l0.06-0.06C71.01,41.46,73.58,41.9,76.08,43.02z"/>
<path d="M64.01,44.84c0.02,0.43,0.06,0.91,0.17,1.33c0.11,0.27,0.23,0.54,0.34,0.81h0.06l0.03-1.16c0.13,0.09-0.03,0.36,0.14,0.46
	c0.17,1.14,0.66,2.43,1.7,3.03c0.38,0.26,0.56,0.57,0.55,1.01c-0.07,0.49-0.34,0.82-0.61,1.21c-0.06,0.09-0.08,0.31-0.02,0.46
	c0.06,0.27,0.35,0.24,0.54,0.31c0.12-0.06,0.18-0.19,0.32-0.14c0.04,0.06,0.17,0.14,0.23,0.03c0.18-0.12-0.16-0.16-0.06-0.32
	c0.09-0.06,0.14-0.18,0.09-0.26c-0.15-0.33-0.53,0.18-0.53-0.29c-0.02-0.13-0.06-0.18-0.08-0.31c0.08-0.13,0.24-0.06,0.34-0.12
	c0.42,0.01,0.71-0.32,1.01-0.55c-0.38-0.19-0.5-0.48-0.73-0.81l0.03-0.03l-0.09-0.11c0.22-0.09,0.41,0.2,0.64,0.26
	c0.09,0,0.21,0.13,0.29,0c-0.17-0.21-0.43-0.42-0.46-0.72c0.17-0.08,0.28,0.17,0.43,0.2c0.28-0.01,0.5,0.27,0.75,0.03
	c-0.15-0.31-0.41-0.18-0.66-0.18c-0.15-0.09,0.05-0.23-0.06-0.34c-0.16-0.23-0.39-0.4-0.64-0.46c-0.2,0.04-0.18,0.51-0.38,0.2
	c-0.07-0.23-0.08-0.53-0.03-0.78c0.14-0.16,0.32-0.37,0.57-0.32l0.41,0.06c0.23-0.34,0.58-0.57,1.04-0.55
	c0.8,0.01,1.19,1.19,2.14,0.75c0.04,0.13-0.17,0.27,0.06,0.32c0.27,0.04,0.57-0.04,0.81-0.17c0.11,0.04,0.02,0.12,0,0.17
	c0.08,0.34-0.22,0.64-0.41,0.87c0.09,0.16,0.08,0.47,0.12,0.66c-0.07,0.74-0.16,1.46-0.49,2.14c0.06,0.25,0.34,0.49,0.03,0.72
	c-0.04,0.19,0.06,0.32,0.14,0.46c0.13,0.11,0.31,0.13,0.46,0.2c0.15-0.01,0.32-0.09,0.38-0.23c-0.08-0.09-0.08-0.24-0.03-0.34
	c0.23,0.38,0.47-0.09,0.73-0.09c0.48-0.68-0.61-1.06-0.49-1.76c0.02-0.36,0.13-0.77,0.41-1.01c0.74-0.44,1.13-1.24,1.41-1.96
	c-0.04-0.29,0.23-0.51,0.18-0.84l0.06-0.06l0.03-0.73c0.23,0.33,0.02,0.94,0.29,1.21c0.16-0.41,0.38-0.82,0.49-1.21l0.02-1.12
	c0.23-0.07,0.34,0.2,0.49,0.34c0.24,0.38,0.23,0.87,0.34,1.3c0.15-0.04,0.18-0.26,0.29-0.34c0.52,0.34,0.44,1.11,0.41,1.68
	c-0.06,0.05-0.02,0.13-0.03,0.2l0.03,0.03c0.17-0.03,0.17-0.36,0.38-0.21c0.37,0.29,0.22,0.86,0.18,1.24
	c-0.12,0.15-0.09,0.36-0.18,0.52c0.12,0.07,0.18-0.19,0.32-0.14c0.23,0.25,0.17,0.69,0.11,0.98c-0.09,0.12-0.14,0.3-0.2,0.46
	c-0.03,0.08-0.19,0.14-0.09,0.23l0.29-0.14c0.15,0.54-0.19,1.19-0.61,1.61c0.12,0.16,0.28-0.11,0.41,0.06
	c-0.03,0.57-0.46,1.08-0.89,1.38c0.08,0.03,0.33,0.04,0.2,0.21c-0.08,0.26-0.16,0.51-0.38,0.72l-0.32,0.26l0.14,0.23
	c-0.12,0.04-0.26-0.02-0.38,0.08c-0.33,0.46-0.66,1.31-1.38,1.3c-0.09,0.11-0.08,0.25-0.12,0.38c-0.2,0.64-0.31,1.31-0.46,1.96
	c-0.14,0.16,0.03,0.24-0.02,0.44L74,59.73c0.09,0.28-0.2,0.58,0.03,0.84l0.03,0.32c1.11,0.22,2.28-0.14,2.94-1.01
	c0.38-0.44,0.72-1.09,0.49-1.67c-0.16-0.36-0.43-0.46-0.78-0.52c0.12-0.29,0.42-0.49,0.69-0.61c0.47-0.2,0.88,0.09,1.21,0.38
	c0.19,0.34,0.4,0.65,0.38,1.07c0.03,0.05,0.08,0.07,0.14,0.06c0.54-0.49,1.09-1.18,1.88-1.21c0.27-0.19,0.6,0,0.93-0.06
	c0.86,0.2,1.67,0.88,1.82,1.73c0.12,0.26,0,0.54,0,0.81c-0.06,0.49-0.21,0.91-0.44,1.36c-0.05,0.29-0.04,0.71,0.14,0.98
	c0.19,0.27,0.44,0.19,0.67,0.29c-0.2,0.2-0.51,0.47-0.87,0.32c-0.47-0.06-0.88-0.4-1.18-0.75c0.02,0.38,0.06,0.82-0.23,1.12
	c0.99-0.05,2.09,0.07,2.62,0.98c0.3,0.62,0.21,1.4-0.14,1.96c-0.18,0.12-0.32,0.45-0.58,0.52c0.07-0.29,0.01-0.69-0.17-0.93
	c-0.18-0.27-0.43-0.15-0.69-0.18c-0.31,0.12-0.73,0.15-1.04,0.09c-0.14,0.11,0.04,0.26-0.06,0.38c-0.14,0.38-0.47,0.77-0.87,0.93
	c-0.11,0.04-0.24,0.01-0.32,0.12c0.4,0.31,0.91,0.45,1.36,0.54c0.33,0.09,0.65-0.02,0.89-0.2c0.25-0.18,0.11-0.41,0.23-0.64
	c0.27,0.08,0.36,0.29,0.46,0.53c0,0.41,0.04,0.84-0.26,1.12c-0.17,0.16-0.36,0.28-0.55,0.38c0.71,0.96,1.12,2.54,0.41,3.64
	c-0.18,0.41,0,0.92-0.26,1.33c-0.11,0.23-0.24,0.5-0.43,0.72c-0.84,1.12-3,1.27-2.69,3.12c-0.17,0.02-0.34-0.13-0.52-0.2l-0.06,0.09
	c0.01,2.31-0.66,4.38-1.53,6.29c-1.5,2.91-4.26,5.54-7.01,7.44l-0.43,0.2c-1.14-0.69-2.21-1.54-3.21-2.39
	c-2.58-2.16-4.45-4.82-5.43-7.91c0.06-0.27-0.24-0.39-0.17-0.67c-0.23-0.96-0.38-1.91-0.43-2.97c-0.22,0.08-0.34,0.52-0.66,0.49
	c-0.03-0.37,0.09-0.79-0.12-1.12c-0.41-1.48-2.17-1.51-3.09-2.68c-0.11-0.14-0.21-0.27-0.34-0.44c-0.39-0.52-0.56-1.14-0.52-1.84
	c0.13-0.12-0.03-0.26,0.11-0.38c0.02-0.19-0.02-0.42-0.09-0.61c-0.11-0.76,0.24-1.55,0.84-2.02l0.03-0.09
	c-0.34-0.16-0.72-0.32-0.84-0.69c-0.17-0.43,0.04-0.83,0.26-1.16c0.25-0.28,0.54-0.53,0.87-0.55c-0.1,0.16-0.11,0.34-0.14,0.53
	c0.02,0.22,0.16,0.45,0.38,0.54c0.22,0.09,0.51-0.01,0.72-0.14c0.16-0.13,0.26-0.31,0.46-0.4c-0.2-0.23-0.39-0.44-0.52-0.72
	c-0.11-0.29-0.05-0.64,0.09-0.89c-0.55-0.04-1.14-0.16-1.76-0.12c-0.3,0.11-0.67,0.44-0.69,0.81c-0.02,0.11,0.03,0.2,0.06,0.29
	c-0.21,0.1-0.35-0.16-0.53-0.23c-0.25-0.3-0.27-0.71-0.38-1.07c0.12-0.39,0.11-0.74,0.32-1.09c0.26-0.47,0.58-0.96,1.16-1.01
	l0.06-0.06c0.52-0.06,0.85-0.03,1.33,0.09c0.08-0.01,0.09-0.11,0.08-0.18c-0.14-0.22-0.28-0.54-0.14-0.81l-0.03-0.03
	c-0.34,0.15-0.53,0.46-0.96,0.41v-0.92c-0.12-0.23-0.13-0.51-0.29-0.73c-0.34-1.02-0.49-2.39,0.41-3.23
	c0.56-0.5,1.48-0.72,2.25-0.49c0.68,0.2,1.26,0.58,1.76,1.09c0.23-0.44,0.51-1.01,1.09-1.18c0.26-0.1,0.57-0.11,0.84-0.03
	c0.44,0.15,0.73,0.54,0.89,0.92v0.23c-0.26,0.03-0.46-0.36-0.78-0.18c-0.42,0.26-0.37,0.69-0.41,1.16c0.07,0.19,0.09,0.41,0.2,0.57
	c0.42,0.87,1.41,1.3,2.31,1.56l0.02-0.03c0.24,0.12,0.54,0.03,0.73-0.14c-0.17-0.13-0.03-0.33-0.12-0.52
	c-0.29-0.66-0.33-1.44-0.58-2.14c-0.18-0.48-0.21-1.04-0.43-1.5c-0.31-0.03-0.66,0.1-0.87-0.26c-0.06-0.14-0.24-0.19-0.26-0.38
	c0.39,0.06,0.99-0.42,1.18,0.21c0.24,1,0.56,1.99,0.84,2.94l0.03,0.03c0.15-0.18-0.04-0.42-0.06-0.63
	c-0.22-0.81-0.49-1.64-0.66-2.43l-0.09-0.12c0.18-0.11,0.39,0.22,0.58,0.09c0.29,0.04,0.54,0.25,0.78,0.38
	c0.14-0.24-0.3-0.56,0.14-0.72l0.49-0.38c0.22,0.04,0.41,0.16,0.63,0.17l0.35-0.52c-0.08-0.16-0.21-0.07-0.32,0.03
	c-0.03,0.03-0.06,0.07-0.11,0.06c0.06-0.09,0.15-0.2,0.11-0.29c-0.09-0.13-0.26-0.08-0.32-0.23c-0.07-0.11,0.15-0.19,0.03-0.32
	c-0.29,0.23-0.47,0.61-0.78,0.72l-0.2,0.43c-0.03-0.32,0.19-0.73,0.03-1.16c-0.2-0.29-0.31-0.68-0.46-1.01
	c-0.14-0.02-0.08,0.16-0.14,0.23c-0.2,0.73-0.29,1.84,0.22,2.48c-0.31,0.11-0.31-0.52-0.69-0.49c-0.17-0.11-0.33-0.34-0.52-0.34
	c0.04,0.25,0.36,0.44,0.46,0.69c-0.36-0.05-0.41-0.84-0.86-0.46c-0.38-0.23-0.54,0.31-0.89,0.14c0-0.16,0.21-0.05,0.26-0.2
	c-0.44-0.23-1.04-0.54-1.18-1.07v-0.09c0.12-0.02,0.36,0.09,0.41-0.12c-0.51-0.25-0.96-0.74-0.96-1.36
	c0.18-0.05,0.36,0.13,0.49-0.06c-0.52-0.36-0.94-0.88-0.84-1.53c0.11-0.04,0.25,0.09,0.38,0c-0.2-0.41-0.63-0.84-0.46-1.36
	c0-0.11,0.09-0.19,0.14-0.29c0.06,0.09,0.19,0.05,0.29,0.06c0.01-0.24-0.11-0.49-0.23-0.72c-0.01-0.4-0.06-0.77,0.21-1.1
	c0.21,0.08,0.29,0.34,0.52,0.32c-0.18-0.67-0.23-1.68,0.38-2.16l0.2,0.11c0.18-0.51,0.25-0.99,0.66-1.41
	c0.11,0.01,0.11-0.09,0.21-0.12L64.01,44.84z"/>
<path class="st1" d="M89.73,44.61c-0.35,0.48-0.57,1.01-0.96,1.47h-0.06c-0.26-0.34-0.51-0.71-0.78-1.01
	c0.58-0.18,1.16-0.36,1.76-0.49L89.73,44.61z"/>
<path class="st2" d="M63.9,45.71c0.12,0.2,0.11,0.46,0.23,0.66c0.08,0.44,0.38,0.84,0.67,1.16l0.03-0.29
	c0.3,0.9,0.74,1.76,1.62,2.25c0.31,0.27,0.36,0.68,0.29,1.07c-0.24,0.59-1.05,1.03-0.49,1.7c0.16,0.24,0.59,0.17,0.55,0.52
	c0.09,0.02,0.11,0.08,0.14,0.14c-0.01,0.15-0.07,0.27-0.11,0.41c-0.09,0.02-0.21-0.05-0.26,0.06c0,0.29,0.12,0.52,0.12,0.81
	c0.14,0.22,0.33-0.11,0.49,0.08c-0.18,0.28-0.31,0.39-0.57,0.58c-0.11-0.16-0.04-0.29-0.06-0.49c-0.21-0.57-0.67-1.12-0.49-1.84
	L66,52.49c-0.27,0.32-0.04,0.73-0.34,1.04c-0.21,0.55-0.19,1.19-0.14,1.73l-0.03,0.15c-0.5-0.21-0.73-0.57-1.07-0.96
	c-0.04,0.28,0.18,0.52,0.21,0.81c-0.74,0.04-1.44-0.19-1.85-0.81c0.14-0.06,0.32,0.01,0.41-0.18c0.32,0.16,0.68,0.06,1.01,0.09
	l0.06-0.06c-0.14-0.22-0.48-0.06-0.69-0.14c-0.57-0.2-1.29-0.51-1.39-1.18c0.32,0.14,0.61-0.28,0.89,0.02
	c0.44,0.15,1,0.35,1.51,0.26c0.01-0.06-0.02-0.09-0.06-0.12c-1.12-0.14-2.43-0.54-2.74-1.73c0.79,0.01,1.41,0.74,2.22,0.84
	c0.05,0.11,0.17,0.04,0.26,0.06c0.05-0.02,0.02-0.07,0.03-0.11c-0.57-0.19-1.21-0.41-1.73-0.81c-0.46-0.39-0.99-0.98-0.81-1.65
	c0.84-0.04,1.02,0.83,1.76,1.04c0.23,0.07,0.44,0.34,0.69,0.2c-0.86-0.47-1.77-0.99-2.17-1.96c-0.11-0.29-0.17-0.72-0.03-1.01
	c0.21,0.19,0.47,0.3,0.72,0.41c0.24,0.56,0.84,1.14,1.39,1.47c0.05-0.02,0.02-0.08,0.02-0.11c-0.76-0.56-1.34-1.38-1.59-2.28
	c-0.01-0.41,0.01-0.81,0.14-1.16c0.07-0.08,0.09-0.19,0.23-0.14c0.33,0.39,0.18,0.98,0.46,1.39c0.33,0.44,0.54,0.9,0.93,1.27
	c0.13-0.19-0.21-0.38-0.29-0.58c-0.54-0.79-1.04-1.94-0.58-2.89c0.09-0.18,0.18-0.36,0.35-0.49C63.82,45.17,63.95,45.4,63.9,45.71z"
	/>
<path class="st2" d="M76.31,46.05c0.17,1.39-0.73,2.53-1.64,3.61c0.01,0.06-0.02,0.14,0.03,0.18c0.28-0.25,0.48-0.61,0.75-0.86
	c0.49-0.72,1.04-1.49,1.09-2.31c0.13-0.02,0.24-0.21,0.32-0.26c0.19,0.28,0.29,0.65,0.29,1.04c-0.12,0.95-0.71,1.75-1.41,2.45
	c0.56-0.09,0.77-0.7,1.16-1.12l-0.03-0.03c0.16-0.31,0.35-0.61,0.66-0.75c0.26,0.24,0.12,0.71,0.12,0.98
	c-0.23,0.88-1.07,1.59-1.82,2.11c-0.02,0.02-0.07,0.04-0.06,0.09c0.13,0.15,0.24-0.07,0.38-0.06c0.66-0.31,1.04-1.09,1.62-1.41
	c0.15-0.06,0.1,0.12,0.14,0.18c-0.02,1.29-1.26,2.04-2.34,2.54v0.03c0.78,0.03,1.42-0.59,1.96-1.1c0.16,0.06,0.19-0.14,0.35-0.09
	c0.04,0.43-0.27,0.78-0.49,1.13c-0.5,0.49-1.12,0.71-1.64,1.09c0.46,0.04,0.8-0.27,1.18-0.46c0.15-0.23,0.42-0.21,0.66-0.2
	c-0.01,0.61-0.69,1.16-1.24,1.36c-0.21,0.16-0.54,0.04-0.75,0.2c0.14,0.1,0.38,0.06,0.54,0.03c0.27-0.07,0.55-0.28,0.84-0.12
	c-0.22,0.65-0.82,0.87-1.41,1.04H75.1c0-0.34-0.09-0.63-0.26-0.9c0.1,0.36,0.17,0.92,0.06,1.3c-0.18,0.19-0.5,0.25-0.64,0.46
	c-0.16,0.66-0.26,1.29-0.46,1.96c-0.1,0.11-0.26,0.28-0.43,0.21L73.16,58c0.07-0.17,0.1-0.41,0.09-0.57
	c0.19-0.16,0.56-0.14,0.66-0.43c-0.19-0.17-0.31,0.21-0.55,0.08c-0.02-0.34,0.13-0.69,0.2-1.04c0.49-0.07,0.88-0.38,1.13-0.81
	c0.07-0.43,0.14-1.07-0.17-1.44c-0.06,0.05-0.02,0.13-0.03,0.2c0.17,0.19,0.14,0.56,0.14,0.81c-0.03,0.33-0.24,0.65-0.52,0.83
	c-0.21,0.08-0.46,0.16-0.66,0.15c-0.23-0.22-0.5-0.44-0.34-0.78c0.16-0.35,0.43-0.44,0.69-0.73c0.07,0.09-0.04,0.23-0.08,0.32v0.81
	c0.11,0.06,0,0.1,0.08,0.17c0.06-0.19,0-0.49,0.06-0.72c-0.01-0.33,0.23-0.65,0.26-0.96c-0.37,0.16-0.64,0.36-0.95,0.67h-0.09
	c0.15-0.43,0.51-0.91,0.2-1.39c-0.05-0.22-0.23-0.31-0.29-0.52c0.2-0.19,0.56-0.23,0.61-0.55c0.44-0.94-0.97-1.4-0.43-2.31
	c0.88-0.69,1.61-1.69,1.79-2.8c0.06,0.08,0.02,0.42,0.03,0.57c0.04,0.07,0.13-0.01,0.14-0.03c0.54-0.75,0.7-1.49,0.78-2.45
	C76.17,45.38,76.22,45.68,76.31,46.05z"/>
<path class="st2" d="M70.68,47.73c0.39,0.2,0.82,0.32,1.29,0.34c-0.07,0.11-0.26,0.07-0.34,0.21c0.09,0.15,0.26,0.06,0.38,0.03
	c0.05,0.09-0.07,0.18-0.11,0.26l-0.26,0.03c-0.12,0.14,0.11,0.22,0.06,0.38c-0.03-0.01-0.04,0.01-0.06,0.02l-0.26-0.23
	c0.04-0.03,0.22,0.02,0.17-0.14c-0.17-0.12-0.34-0.23-0.55-0.26c0.09,0.44,0.26,0.81,0.23,1.32c-0.01,0.7-0.41,1.34-0.54,1.99
	c-0.22,0.2-0.88,0.03-0.69,0.52l-0.38,0.03c-0.12-0.12,0.07-0.42-0.21-0.44c-0.24,0.01-0.46-0.12-0.66-0.11
	c-0.16,0.07-0.06,0.53-0.4,0.32c-0.15-0.12,0.16-0.27,0-0.41c-0.16-0.12-0.38-0.21-0.46-0.38c-0.01-0.15-0.01-0.31,0.11-0.41
	c0.38-0.52,1.18,0.09,1.53-0.49c0.11-0.26,0.28-0.61,0.09-0.89c0.01-0.35-0.5-0.59-0.26-0.92c0-0.61-1.16-0.74-0.61-1.33
	c0.23-0.23,0.69-0.17,0.96-0.06C70.06,47.23,70.34,47.55,70.68,47.73z"/>
<path d="M69.38,47.47c0,0.05,0.06,0.08,0.09,0.11c-0.11,0-0.23,0.12-0.38,0.11c-0.13,0.02-0.21-0.12-0.26-0.2
	c0.01-0.32,0.24-0.04,0.41-0.09C69.28,47.43,69.31,47.49,69.38,47.47z"/>
<path class="st2" d="M71.66,49.11c0.08,0.65,0.03,1.28-0.29,1.84c0,0.13-0.09,0.21-0.14,0.32c-0.07-0.06-0.1-0.19-0.08-0.32
	c0.04-0.1,0.2,0.05,0.26-0.09c-0.1-0.12-0.15-0.31-0.09-0.46c0.05,0.01,0.12-0.02,0.14,0.02c0.23-0.19-0.4-0.62,0.14-0.57
	c-0.01-0.15-0.19-0.24-0.17-0.41c0.06,0.01,0.09,0.09,0.17,0.06c0.14-0.06,0-0.16-0.02-0.23l-0.14-0.11
	C71.46,49.11,71.6,49.18,71.66,49.11z"/>
<path class="st2" d="M68.92,49.54c-0.17,0.17-0.31-0.06-0.46-0.11v-0.06C68.61,49.44,68.82,49.41,68.92,49.54z"/>
<path d="M65.17,49.72c-0.08-0.06-0.23-0.19-0.09-0.29C65.15,49.51,65.18,49.6,65.17,49.72z"/>
<path d="M64.91,50.24c-0.14,0.14-0.11,0.31-0.03,0.46c0.09,0.07,0.06,0.25,0.14,0.34c-0.08-0.23-0.42-0.45-0.31-0.75l0.09-0.32
	C64.83,50.06,64.95,50.09,64.91,50.24z"/>
<path d="M75.07,50.44c-0.05,0.16-0.16,0.29-0.23,0.43c-0.02-0.18,0.18-0.35,0.02-0.52c0.02-0.07-0.04-0.19,0.06-0.2
	C75.03,50.23,74.97,50.36,75.07,50.44z"/>
<path class="st2" d="M67.68,51.16c-0.07,0.12-0.25,0.12-0.34,0.11C67.36,51.15,67.55,51.16,67.68,51.16z"/>
<path d="M64.91,51.59c0.06,0.19,0.34,0.29,0.32,0.52c-0.18-0.2-0.58-0.48-0.46-0.78c0.03-0.02,0.04-0.07,0.09-0.06
	C64.95,51.34,64.89,51.49,64.91,51.59z"/>
<path d="M75.01,51.56c-0.19,0.06-0.27,0.27-0.4,0.41l0.31-0.46c-0.04-0.08-0.05-0.2,0.06-0.23C74.99,51.38,75.08,51.47,75.01,51.56z
	"/>
<path class="st2" d="M71.08,51.63l-0.06,0.06c-0.05-0.06-0.14-0.22,0-0.26C71.09,51.47,71.15,51.56,71.08,51.63z"/>
<path class="st2" d="M68.11,51.68c0.03,0.12-0.04,0.23-0.12,0.29l-0.17-0.09C67.87,51.77,67.93,51.56,68.11,51.68z"/>
<path class="st2" d="M71.52,51.83C71.48,51.89,71.51,52,71.4,52c-0.07,0-0.11-0.11-0.11-0.17c-0.04-0.04,0.04-0.12,0.06-0.18
	C71.45,51.61,71.5,51.75,71.52,51.83z"/>
<path class="st2" d="M71.15,52.06c-0.08,0-0.18,0.13-0.23,0c0.01-0.09,0.12-0.06,0.17-0.12C71.11,51.98,71.16,52,71.15,52.06z"/>
<path class="st2" d="M69.35,52.08l-0.03,0.21c-0.13,0.07-0.25-0.04-0.38-0.06C68.88,51.91,69.24,52.03,69.35,52.08z"/>
<path class="st2" d="M70.74,52.2c0.02,0.06-0.03,0.08-0.06,0.11c-0.18,0.02-0.33-0.01-0.35-0.2C70.4,51.99,70.78,51.94,70.74,52.2z"
	/>
<path class="st2" d="M68.57,52.34c-0.01,0.08-0.04,0.15-0.03,0.23c0.27,0.1,0.56,0.16,0.86,0.17c0.14-0.06,0.08-0.21,0.18-0.29
	c0.16-0.03,0.27,0.06,0.43,0.03c0.01,0.17,0.08,0.24,0.23,0.29c0.14-0.04,0.38-0.04,0.49,0c0.06,0.2-0.01,0.44,0.2,0.58
	c0.14-0.19-0.01-0.41-0.09-0.58c0.16-0.07,0.14-0.46,0.37-0.23c0.23,0.16,0.23,0.41,0.29,0.64c-0.25,0.11-0.51,0.23-0.69,0.43
	c-0.1-0.03-0.15-0.18-0.26-0.18c-0.03,0.26,0.16,0.43,0.18,0.69c0.12,0.21,0.03,0.46-0.03,0.67c-0.08,0.03-0.06-0.06-0.09-0.09
	c-0.39-0.2-0.79-0.4-0.84-0.89l-0.06-0.06c-0.28,0.28-0.33,0.69-0.17,1.07c-0.04,0.06-0.1,0.07-0.15,0.03
	c-0.04-0.09,0.09-0.21,0-0.32c-0.2-0.01-0.09-0.21-0.14-0.32c-0.06-0.31-0.08-0.63-0.31-0.86h-0.12c0.12,0.34-0.06,0.82-0.32,1.06
	c-0.12,0.09-0.11,0.25-0.29,0.21c-0.08-0.17,0.08-0.27-0.06-0.43c0.01-0.41-0.19-0.81-0.58-0.98c-0.04-0.05-0.2-0.06-0.11-0.15
	c0.09-0.17,0.26-0.31,0.26-0.52c-0.06-0.06-0.18-0.14-0.09-0.23c0.08-0.09,0.14-0.02,0.23,0c-0.01,0.04,0.02,0.07,0.06,0.06
	c0.22,0.04,0.14-0.32,0.38-0.14C68.38,52.21,68.51,52.24,68.57,52.34z"/>
<path d="M74.72,52.26c0.07,0.11-0.02,0.21-0.03,0.32l-0.38,0.23c0.04-0.17,0.37-0.21,0.29-0.46C74.69,52.36,74.64,52.24,74.72,52.26
	z"/>
<path d="M65.55,52.86c-0.22-0.11-0.56-0.25-0.49-0.55L65.55,52.86z"/>
<path class="st2" d="M67.48,52.63c-0.01,0.06-0.08,0.1-0.11,0.14c-0.08-0.01-0.15-0.04-0.21-0.11C67.2,52.44,67.4,52.48,67.48,52.63
	z"/>
<path class="st3" d="M73.16,53.36c0.11,0.26,0.07,0.52-0.09,0.75l0.03,0.02c-0.2,0.31-0.2,0.66-0.29,0.98l-0.03,0.03
	c-0.14-0.12-0.34-0.31-0.55-0.23l-0.09,0.14c-0.07-0.08-0.31-0.06-0.26-0.26c0.28-0.67,0.88-1.13,0.89-1.91
	C72.96,53.01,73.08,53.16,73.16,53.36z"/>
<path class="st2" d="M72.56,53.04c0.06,0.64-0.54,0.94-0.69,1.5c-0.14-0.06-0.19-0.21-0.29-0.32c-0.17-0.16-0.38-0.3-0.55-0.4
	c0.14-0.33,0.52-0.34,0.78-0.52C72.1,53.3,72.32,53.15,72.56,53.04z"/>
<path class="st2" d="M67.16,53.27h-0.09l0.03-0.03C67.12,53.25,67.13,53.28,67.16,53.27z"/>
<polygon class="st2" points="67.39,53.64 67.33,53.5 67.42,53.61 "/>
<path class="st3" d="M67.94,53.84c-0.03,0.12,0.06,0.18,0.03,0.29c-0.12-0.06-0.27-0.06-0.41-0.09l-0.12,0.15
	c0.03-0.23,0.18-0.44,0.14-0.67C67.78,53.53,67.82,53.74,67.94,53.84z"/>
<path class="st2" d="M67.21,53.79c0.01,0.16-0.11,0.17-0.23,0.2c-0.01-0.11-0.08-0.19-0.06-0.32
	C67.03,53.61,67.21,53.64,67.21,53.79z"/>
<path class="st3" d="M71.6,54.65c-0.14,0.01-0.28-0.01-0.4-0.06c-0.04,0.07-0.16,0.1-0.12,0.21l0.03,0.03
	c-0.06,0.06-0.11,0.17-0.2,0.09c0.05-0.29,0.01-0.65,0.03-0.93C71.15,54.19,71.53,54.32,71.6,54.65z"/>
<path class="st3" d="M69.1,54.34c0.03,0.17-0.19,0.16-0.29,0.11c-0.07-0.16,0.13-0.28,0.15-0.43C69.1,54.03,69.03,54.24,69.1,54.34z
	"/>
<path class="st3" d="M69.99,54.57c-0.03,0.09-0.22,0.08-0.18,0.23c-0.14-0.13-0.16-0.36-0.14-0.58
	C69.77,54.29,69.87,54.48,69.99,54.57z"/>
<path class="st3" d="M67.94,54.51c-0.02,0.12-0.17,0.14-0.26,0.09c-0.12-0.07-0.01-0.19,0.03-0.26
	C67.78,54.31,68.06,54.36,67.94,54.51z"/>
<path class="st3" d="M69.06,54.71c0.01,0.11-0.01,0.21-0.09,0.29c-0.15,0.06-0.09-0.12-0.14-0.17
	C68.79,54.68,68.98,54.65,69.06,54.71z"/>
<path class="st3" d="M70.45,54.91c0,0.08,0.02,0.19-0.09,0.2c-0.19,0.01-0.14-0.11-0.23-0.23C70.2,54.81,70.38,54.8,70.45,54.91z"/>
<path class="st4" d="M71.69,54.88c0.07,0.08,0.01,0.17-0.06,0.23l-0.26-0.03v-0.23L71.69,54.88z"/>
<path class="st3" d="M68.63,55.26l0.2,0.03c0.04,0.24-0.26,0.43-0.32,0.64c-0.01,0.07-0.04,0.14-0.11,0.2l0.03,0.03
	c-0.21,0.36-0.35,0.76-0.17,1.18l0.14,0.14c0.02-0.24-0.05-0.59,0.06-0.84c0-0.11,0.03-0.29,0.14-0.29c0.05,0.26,0.4,0.35,0.55,0.55
	c0.01,0.36,0.11,0.61,0.03,0.98c-0.21,0.09-0.34,0.38-0.61,0.34l-0.49-0.29c-0.06-0.64-0.21-1.33-0.32-1.99
	c0.01-0.46,0.29-0.86,0.69-1.04C68.47,55.03,68.44,55.24,68.63,55.26z"/>
<path class="st3" d="M69.78,55.2c-0.03,0.27-0.38,0.29-0.57,0.43c-0.12,0.13-0.12,0.31-0.06,0.46c-0.06,0.08-0.02,0.25-0.03,0.38
	c-0.24,0.08-0.28-0.28-0.46-0.38c0.21-0.22,0.21-0.81,0.67-0.72C69.21,55.03,69.66,55.14,69.78,55.2z"/>
<path class="st3" d="M71.4,55.43l0.14,0.06c-0.11,0.2-0.31,0.36-0.43,0.55c-0.22,0.22-0.29,0.57-0.18,0.87
	c0.05,0.02,0.07,0.12,0.14,0.09c0.1-0.11-0.06-0.18-0.02-0.29c0.11-0.46,0.47-0.76,0.75-1.12c0.13-0.08-0.07-0.39,0.2-0.32
	c-0.02,0.14,0.03,0.31,0.18,0.41h0.02c-0.14,0.36-0.14,0.73-0.26,1.1c-0.1,0.01-0.31-0.18-0.41-0.32c-0.12,0.21,0.08,0.42,0.2,0.61
	c0.34,0.21,0.09,0.56,0.09,0.86c-0.24,0.11-0.46,0.31-0.75,0.32c-0.1-0.2-0.39-0.19-0.46-0.41c-0.01-0.74,0.03-1.38-0.03-2.11
	c-0.12-0.2,0.16-0.38,0.23-0.57C71.22,54.99,70.98,55.61,71.4,55.43z"/>
<path class="st4" d="M72.73,55.46c-0.04,0.09-0.17,0.06-0.23,0.03c-0.09-0.05-0.21-0.11-0.12-0.23l0.06-0.08
	C72.57,55.2,72.75,55.34,72.73,55.46z"/>
<path class="st2" d="M70.33,55.43c0.01,0.03-0.01,0.04-0.03,0.06h-0.03v-0.08C70.3,55.39,70.31,55.42,70.33,55.43z"/>
<path class="st2" d="M75.41,55.78c-0.14,0.01-0.27-0.02-0.38-0.09c0.08-0.23,0.44-0.03,0.61-0.18
	C75.73,55.66,75.51,55.73,75.41,55.78z"/>
<path class="st2" d="M75.85,55.66c-0.09,0.36-0.46,0.88-0.86,0.95c-0.02-0.03-0.06-0.03-0.09-0.03c0.04-0.2,0.14-0.39,0.14-0.61
	C75.34,56.03,75.63,55.91,75.85,55.66z"/>
<path class="st5" d="M69.47,55.78c0.08,0.56,0.01,1.12,0.11,1.73l-0.03,0.57c-0.24,0.08-0.41,0.39-0.67,0.32
	c0.09-0.23,0.39-0.23,0.49-0.46c-0.03-0.64-0.06-1.29-0.09-2.05C69.35,55.86,69.35,55.73,69.47,55.78z"/>
<path class="st5" d="M72.41,55.86c-0.07,0.64-0.09,1.26-0.21,1.91c-0.08,0.19,0.07,0.4-0.2,0.49c-0.23-0.01-0.46,0.38-0.64,0.11
	c0.22-0.16,0.54-0.19,0.67-0.46c0.04-0.49,0.14-0.89,0.14-1.36C72.35,56.33,72.08,55.95,72.41,55.86z"/>
<path class="st5" d="M66.64,56.18c0.06,0.48,0.24,0.91,0.29,1.39c0.07,0.2,0.09,0.42,0.21,0.61c-0.16,0.18-0.29,0.51-0.49,0.43
	c0.59-0.42-0.01-1.11,0-1.68c-0.07-0.27-0.09-0.57-0.2-0.84C66.5,55.9,66.66,56.09,66.64,56.18z"/>
<path class="st5" d="M74.81,56.04c-0.06,0.49-0.26,1.02-0.34,1.5c-0.17,0.52-0.28,1.07-0.44,1.59h-0.09
	c0.05-0.37,0.21-0.73,0.23-1.07c0.19-0.39,0.23-0.84,0.38-1.24c-0.01-0.26,0.14-0.52,0.21-0.78H74.81z"/>
<path class="st3" d="M64.8,56.39c-0.03,0.12-0.17,0.08-0.23,0.17c-0.14,0.02-0.32-0.01-0.44-0.14c-0.02-0.06-0.07-0.09-0.11-0.14
	C64.21,56.12,64.71,56.03,64.8,56.39z"/>
<path class="st3" d="M66.41,57.91c0.08-0.09-0.01-0.18-0.06-0.26c-0.13-0.19-0.22-0.52-0.26-0.75c-0.13-0.08-0.09-0.23-0.14-0.35
	c0.19,0.14,0.49,0.23,0.55,0.49c-0.1,0.52,0.56,1.14-0.09,1.47c-0.66-0.16-0.38-1.02-0.69-1.47c-0.06-0.17-0.11-0.41-0.17-0.61
	v-0.18C65.98,56.71,65.86,57.5,66.41,57.91z"/>
<path class="st3" d="M59.6,57.28c-0.44,0.03-0.79,0.33-0.98,0.72c-0.14,0.71,0.16,1.44,0.75,1.88c0.14,0.08,0.24,0.21,0.41,0.21
	c0.13,0.09,0.24,0.09,0.41,0.17v0.09c-0.46,0.33-1.11,0.46-1.62,0.14c-0.16-0.08-0.22-0.4-0.43-0.31c-0.01,0.21,0.11,0.47,0.03,0.72
	c-0.1,0.51-0.44,1.04-1.01,1.18c0.11-0.58-0.3-1.09-0.38-1.68c-0.14-0.32-0.2-0.67-0.23-1.04c-0.1-0.78,0.19-1.49,0.77-1.99
	l0.46-0.23c-0.21,0.21-0.39,0.47-0.43,0.69c-0.22,0.43-0.09,0.92,0,1.33c0.11,0.08,0.1,0.27,0.23,0.29
	c0.22-0.26-0.21-0.46-0.14-0.75c-0.14-0.49,0.06-0.98,0.38-1.36c0.37-0.29,0.87-0.42,1.33-0.32C59.29,57.11,59.48,57.15,59.6,57.28z
	"/>
<path class="st3" d="M82.8,58.29c0.09,0.23,0.11,0.51,0.06,0.75c0.02,0.34-0.23,0.64-0.49,0.9c0.06,0.05,0.16,0.08,0.23,0.02
	c0.43-0.37,0.51-1.01,0.38-1.61c-0.06-0.14-0.09-0.28-0.17-0.41c0.38,0.21,0.67,0.51,0.75,0.95c0.01,0.09,0,0.19,0.09,0.26
	c0.08,0.56-0.11,0.94-0.17,1.41c-0.31,0.51-0.53,1.19-0.14,1.73l0.38,0.26c-0.39,0.08-0.9,0.02-1.18-0.29
	c-0.41-0.4-0.7-0.96-0.49-1.51c0.02-0.11,0.07-0.19-0.03-0.29c-0.21,0.14-0.46,0.29-0.75,0.29c-0.42,0-0.91-0.15-1.12-0.54
	c0.78,0.02,1.44-0.54,1.73-1.19c0.18-0.4,0.18-0.92-0.12-1.27l-0.31-0.29C82.03,57.36,82.59,57.72,82.8,58.29z"/>
<path class="st5" d="M60.52,58.52c0.57,0.69,0.83,1.49,1.44,2.22c0.55,0.56,1.31,0.7,1.99,0.86c0.06,0.12,0.21,0.02,0.29,0.09
	c0.2,0.14,0.44-0.03,0.61,0.14c-0.18,0.15-0.37,0.09-0.58,0.06c-1.12-0.21-2.47-0.58-2.97-1.82c-0.35-0.81-0.96-1.68-1.79-2.11
	c0.09-0.21,0.27,0.01,0.41,0.02L60.52,58.52z"/>
<path class="st5" d="M74.06,59.41c0.04,0.09-0.06,0.15-0.12,0.17c-2.27-0.64-4.94-0.51-7.36-0.11c-0.19,0.06-0.31,0.11-0.49,0.17
	c-0.11,0.02-0.21-0.02-0.29-0.08c0.03-0.17,0.33-0.23,0.52-0.29c0.61-0.14,1.24-0.24,1.88-0.31c1.92-0.05,3.92-0.23,5.74,0.38
	L74.06,59.41z"/>
<path class="st5" d="M81.36,58.2c-0.81,0.34-0.96,1.26-1.61,1.74c-0.06,0.19-0.28,0.27-0.41,0.4c-0.87,0.78-1.91,1.28-2.98,1.64
	c-0.08,0.02-0.15-0.01-0.2-0.08c1.66-0.63,3.49-1.59,4.36-3.21c0.26-0.24,0.5-0.48,0.84-0.58V58.2z"/>
<path class="st5" d="M67.68,60.02c-0.09,0.07-0.22,0.06-0.34,0.06c-0.04-0.18-0.16-0.31-0.12-0.52c0.13-0.01,0.25-0.11,0.38-0.03
	C67.62,59.69,67.65,59.86,67.68,60.02z"/>
<path class="st5" d="M67.05,60.11c-0.09,0.12-0.27,0.02-0.38,0.09c-0.06-0.16-0.15-0.44-0.03-0.55
	C67.01,59.44,67.01,59.88,67.05,60.11z"/>
<path class="st5" d="M73.45,59.68c0.03,0.16-0.06,0.36-0.03,0.52c-0.07-0.01-0.16,0.04-0.2-0.06c0.07-0.11-0.03-0.36,0.09-0.49
	C73.35,59.66,73.4,59.69,73.45,59.68z"/>
<path class="st5" d="M66.32,60.28c-0.1,0.02-0.22,0.11-0.26-0.06v-0.38C66.35,59.78,66.23,60.14,66.32,60.28z"/>
<path class="st1" d="M98.07,59.96c0.19,0.74,0.43,1.63-0.2,2.23c-0.69,0.56-1.58,0.83-2.51,0.66c-0.27-0.13-0.59-0.18-0.84-0.41
	c-0.43-0.41-0.57-0.87-0.61-1.44c-0.11-0.05-0.04-0.17-0.06-0.26c1.3-0.26,2.6-0.52,3.89-0.78H98.07z"/>
<path class="st5" d="M72.33,60.25c0.53,0.06,1.2,0.08,1.59,0.44c-0.23,0.23-0.46-0.06-0.69-0.09c-1.43-0.26-3.04-0.35-4.62-0.26
	c-0.21,0.12-0.54-0.01-0.75,0.12c-0.58,0.02-1.18,0.17-1.73,0.31l-0.09-0.08c0.36-0.23,0.82-0.34,1.27-0.41
	c0.41,0.01,0.79-0.14,1.19-0.09C69.77,60.04,71.06,60.11,72.33,60.25z"/>
<path d="M82.11,60.43h-0.06c-0.01-0.04,0.01-0.09,0.06-0.09V60.43z"/>
<path class="st6" d="M72.56,60.69c-0.85,0.01-1.76-0.02-2.66,0.02c-0.03,0.08-0.19,0.08-0.09,0.18c0.21-0.01,0.48,0.21,0.55,0.43
	v0.32c-1.06-0.38-1.86,0.38-2.71,0.75c-0.94,0.04-1.64-0.28-2.48-0.38c0.29-0.68,1.01-1.11,1.73-1.24
	C68.74,60.43,70.87,60.44,72.56,60.69z"/>
<path class="st2" d="M59.68,60.77c0.11,0.05,0.26,0.12,0.29,0.26c-0.23,0-0.56-0.13-0.81,0c-0.32,0.06-0.65,0.08-0.89,0.32
	c-0.04-0.08,0.04-0.17,0.06-0.26l0.09-0.46C58.8,60.85,59.23,60.81,59.68,60.77z"/>
<path class="st2" d="M81.76,60.92c0.06,0.29-0.01,0.64,0.18,0.89c-0.35-0.34-0.81-0.67-1.28-0.49c0.11,0.17,0.34,0.33,0.46,0.52
	c0.03,0.43-0.48,0.52-0.81,0.67c-0.62,0.14-1.29,0.21-1.93,0.06c0.78-0.49,1.61-0.98,2.27-1.62C81.04,61.04,81.4,61.02,81.76,60.92z
	"/>
<path class="st2" d="M62.08,62.44l-0.11,0.09c-0.82,0.07-1.57,0.05-2.25-0.32c-0.16-0.16-0.22-0.39-0.14-0.61
	c0.06-0.23,0.35-0.29,0.52-0.46C60.65,61.72,61.39,62.14,62.08,62.44z"/>
<path class="st3" d="M75.85,62.13c0.07,0.09,0.18,0.12,0.18,0.23c-0.89,0.17-1.43,1.13-2.43,1.1h-0.11
	c0.44-0.25,0.83-0.51,1.09-0.95c-0.23-0.12-0.37,0.31-0.57,0.4c-0.51,0.36-1.14,0.61-1.79,0.46c-0.2-0.13-0.44-0.22-0.61-0.41
	c0.99,0.26,1.65-0.57,2.31-1.15c0.31-0.19,0.82-0.26,1.16-0.06C75.36,61.79,75.6,61.98,75.85,62.13z"/>
<path class="st6" d="M70.22,62.1c-0.02,0.06-0.07,0.1-0.12,0.14c-0.04,0.11,0.07,0.16,0.12,0.23c0.18,0.06,0.31-0.19,0.38,0.06
	c-0.96,0.06-2.05,0-2.92,0.06c0.52-0.26,1-0.61,1.56-0.77C69.62,61.85,69.96,61.79,70.22,62.1z"/>
<path class="st6" d="M71.37,62.59c-0.16-0.09-0.33,0.07-0.49-0.02c-0.19-0.26-0.4-0.52-0.66-0.73
	C70.7,61.93,71.11,62.16,71.37,62.59z"/>
<path d="M69.41,62.24c0.01,0.14-0.09,0.21-0.23,0.18c-0.05-0.07-0.06-0.14-0.06-0.23C69.24,62.16,69.33,62.1,69.41,62.24z"/>
<path d="M69.93,62.24c-0.03,0.06-0.06,0.12-0.12,0.18c-0.09,0.02-0.17-0.03-0.2-0.12c-0.03-0.07,0.04-0.12,0.09-0.17
	C69.8,62.11,69.91,62.14,69.93,62.24z"/>
<path d="M68.86,62.3c0.01,0.06-0.01,0.11-0.06,0.14c-0.1,0.04-0.16-0.08-0.2-0.14C68.6,62.13,68.86,62.13,68.86,62.3z"/>
<path class="st6" d="M67.28,62.59l-0.06,0.06c-0.54-0.02-1.09,0.04-1.59,0.06l0.18-0.32C66.31,62.49,66.78,62.53,67.28,62.59z"/>
<path class="st6" d="M70.68,62.79c0,0.21-0.11,0.44-0.18,0.66c-0.01,0.32-0.08,0.62-0.2,0.93c-1.35,0.48-2.51,1.67-3.06,2.91h-0.09
	c-0.74-1.52-1.61-2.94-2.86-4.16v-0.06c0.55-0.09,1.02-0.19,1.59-0.14l0.06-0.06C67.53,62.76,69.14,62.74,70.68,62.79z"/>
<path class="st6" d="M72.15,63.54c0.54,0.3,1.23,0.03,1.82,0.11c-0.03,0.09-0.04,0.17-0.11,0.23c-0.11-0.03-0.23-0.16-0.32-0.03
	c0.04,0.11,0.18,0.13,0.26,0.2c-0.08,0.09-0.14-0.04-0.23-0.03c-0.12-0.07-0.38-0.28-0.46-0.06c0.18,0.15,0.44,0.17,0.61,0.32v0.09
	c-0.31-0.09-0.57-0.31-0.9-0.35c-0.03,0.04-0.08,0.04-0.11,0.09c0.29,0.16,0.67,0.25,0.89,0.46v0.09c-0.77-0.51-1.82-0.54-2.83-0.46
	c-0.04,0.11-0.16,0.04-0.23,0.09c0.06-0.54,0.19-0.96,0.34-1.48c0.12-0.08,0.27,0.04,0.37,0C71.5,63.14,71.8,63.38,72.15,63.54z"/>
<path class="st5" d="M76.68,63.19v0.03c0.58,0.2,1.22,0.24,1.79,0.46c1.16,0.11,2.39,0.27,3.61,0.09c0.65,0.03,1.32,0.16,1.79,0.72
	c0,0.05,0.01,0.12-0.06,0.12c-0.11,0-0.2-0.19-0.32-0.23c-1.11-0.85-2.61-0.06-3.93-0.35c-1.44-0.12-2.8-0.5-4.04-1.01
	c-0.03-0.09,0.08-0.07,0.12-0.12C76.01,62.95,76.35,63.17,76.68,63.19z"/>
<path d="M66.09,64.53c0.39,0.58,0.74,1.26,0.98,1.91c-0.02,0.03-0.07,0.04-0.06,0.09c-0.65-1.09-1.33-2.25-2.28-3.21
	c0.12-0.1,0.29,0.02,0.44,0.03C65.56,63.68,65.78,64.13,66.09,64.53z"/>
<path class="st3" d="M75.38,63.86c0.56,0.43,1.44,0.16,1.85,0.84c0.29,0.46,0.83,0.51,1.33,0.4c0.29-0.14,0.6-0.27,0.81-0.55
	c0.21,0.28,0.11,0.64-0.03,0.9c-0.11,0.26-0.35,0.44-0.49,0.63c0.93,0.73,1.93,1.39,3.09,1.71c0.41,0.02,0.91,0.01,1.12-0.41
	c0.06-0.11,0.12-0.28,0.14-0.34c0.17,0.16,0.29,0.45,0.2,0.75c-0.04,0.25-0.21,0.61-0.49,0.72c-0.19,0.01-0.39,0.11-0.58,0.03
	c-0.16,0.21,0.17,0.31,0.26,0.46c0.24,0.29,0.26,0.81,0.2,1.18c-0.08,0.27-0.29,0.54-0.55,0.64c-0.14-0.23-0.19-0.51-0.29-0.75
	c-0.48-0.98-1.29-1.83-2.28-2.37c-2.03-1.11-4.01-2.08-5.48-4.01c0.01-0.23,0.33-0.17,0.46-0.34
	C74.98,63.39,75.08,63.75,75.38,63.86z"/>
<path class="st5" d="M61.5,63.72l-0.14,0.17c-1.37,0.25-2.9,0.27-4.28,0.09c-0.01-0.04,0.04-0.06,0.06-0.09
	c1.39,0.14,2.89,0.02,4.24-0.2C61.43,63.7,61.48,63.66,61.5,63.72z"/>
<path class="st3" d="M61.96,64.29c0.15,0.21,0.21,0.46,0.49,0.55c0.64,0.15,1.06-0.58,1.65-0.73l0.54-0.26
	c0.18,0.04,0.24,0.26,0.38,0.34c-0.78,0.96-1.78,1.66-2.86,2.22c-0.54,0.36-1.08,0.52-1.61,0.84l-0.06,0.06
	c0.23,0.02,0.45-0.14,0.69-0.18c0.44-0.2,0.95-0.38,1.39-0.66c0.95-0.59,1.84-1.21,2.57-2.05h0.06c0.17,0.19,0.39,0.44,0.46,0.66
	c-0.48,0.43-0.95,0.94-0.86,1.62c0.06,0.24,0.34,0.37,0.52,0.43c-0.2,0.21-0.51,0.31-0.81,0.32c-0.26-0.01-0.46-0.17-0.57-0.38
	c-0.05-0.17-0.03-0.36-0.12-0.52c-0.52,0.49-1.07,0.96-1.7,1.32h-1.16l-0.06,0.06c-0.04,0.18,0.14,0.37-0.09,0.53
	c-0.23,0.07-0.54,0.15-0.78,0.31c-0.74,0.41-1.24,1.17-1.39,1.94c-0.36-0.01-0.7-0.06-0.98-0.29c0.27-1.14,1.34-2.29,2.48-2.86
	c-0.09-0.21-0.26,0.03-0.41,0c-1.06,0.54-1.86,1.68-2.28,2.66c-0.24-0.09-0.35-0.38-0.43-0.61c0.01-0.38,0.16-0.74,0.52-0.93
	c-0.07-0.19-0.34-0.11-0.52-0.17c-0.26-0.02-0.42-0.28-0.55-0.46c-0.19-0.58,0.15-1.05,0.58-1.39h0.09
	c-0.13,0.27,0.09,0.46,0.14,0.69c0.18,0.12,0.32,0.29,0.57,0.26c0.53-0.01,0.75-0.43,1.16-0.67c0.41,0.06,0.93,0.31,1.39,0.09
	c-0.19-0.15-0.46-0.37-0.49-0.63c0.4-0.21,0.8-0.41,1.24-0.52c0.21-0.21,0.65-0.06,0.72-0.44c-0.22-0.14-0.4-0.2-0.61-0.38
	c-0.12-0.17-0.19-0.39-0.11-0.61c0.01-0.34,0.45-0.58,0.75-0.69C62.01,63.93,61.95,64.13,61.96,64.29z"/>
<path class="st3" d="M79.37,67.67c1.26,0.74,2.38,1.87,2.68,3.26c-0.21,0.23-0.59,0.14-0.89,0.2c-0.16-0.14-0.13-0.36-0.18-0.54
	c-0.17-0.39-0.44-0.76-0.72-1.07c0.04-0.09,0.21-0.1,0.14-0.26c-0.12-0.12-0.29-0.01-0.43,0c-0.29-0.24-0.49-0.44-0.84-0.61
	l-0.06-0.84l-1.5-0.02c-0.69-0.52-1.49-1.02-2.11-1.68c-0.05-0.02-0.08,0.03-0.11,0.06c0.11,0.4,0.31,0.92-0.06,1.24
	c-0.27,0.1-0.51-0.04-0.69-0.21c-0.04-0.16,0.02-0.34,0.09-0.49c-0.06-0.28,0.01-0.61-0.17-0.84c-0.12-0.43-0.41-0.75-0.75-1.07
	C73.8,64.53,74,64.29,74,64.03l0.09-0.11C75.58,65.7,77.39,66.76,79.37,67.67z"/>
<path class="st5" d="M56.25,64.06c-0.19,0.06-0.36,0.16-0.55,0.2c0.09-0.17,0.36-0.26,0.55-0.26V64.06z"/>
<path class="st6" d="M73.19,64.73c-0.12,0.07-0.37-0.14-0.46,0.03c0.55,0.19,1.34,0.46,1.5,0.95c-0.38-0.42-0.84-0.62-1.33-0.61
	c0.02,0.23,0.27,0.14,0.41,0.21c0.43,0.15,0.79,0.45,0.95,0.89c-0.32-0.33-0.66-0.73-1.15-0.67c-0.03,0.14,0.13,0.19,0.23,0.21
	c0.43,0.15,0.96,0.56,0.96,1.07c0,0.36-0.07,0.69-0.38,0.92c-0.01-0.14,0.11-0.23,0.18-0.38c0.07-0.31,0.01-0.63-0.18-0.86
	c-0.56-0.61-1.53-0.85-2.34-0.52c-0.12-0.17-0.11-0.38-0.23-0.55c-0.25-0.31-0.42-0.67-0.75-0.93
	C71.44,64.27,72.47,64.39,73.19,64.73z"/>
<path class="st6" d="M71,65.16c0.15,0.29,0.39,0.54,0.38,0.9c-0.01,0.08-0.2,0.06-0.14,0.2c0.09,0.1,0.21-0.06,0.32-0.09
	c0.77-0.25,1.71-0.22,2.25,0.46c0.09,0.22,0.21,0.38,0.12,0.64c-0.09,0.24-0.26,0.49-0.52,0.57c-0.06-0.06-0.16-0.02-0.23-0.03
	c0.38-0.2,0.52-0.54,0.49-0.95c-0.16-0.38-0.54-0.54-0.89-0.64c-1.86-0.28-2.5,1.62-3.92,2.28c-0.54,0.29-1.11,0.64-1.79,0.64
	c-0.78-0.59-1.42-1.52-1.1-2.6c0.05-0.13,0.09-0.27,0.14-0.38c0.03-0.02,0.07-0.18,0.18-0.18c0.14,0.16-0.06,0.31-0.09,0.46
	c-0.06,0.41-0.12,1,0.12,1.39c0.07,0.31,0.29,0.55,0.49,0.81c0.52,0.48,1.13-0.13,1.68-0.26c0.62-0.31,1.22-0.86,1.68-1.39
	c-0.06-0.08-0.12,0.02-0.18,0.03c-0.73,0.69-1.56,1.34-2.57,1.56c-0.24,0.27-0.47-0.12-0.61-0.26c-0.18-0.24-0.32-0.41-0.34-0.72
	c-0.19-0.24-0.12-0.76-0.06-1.04h0.06c0.25,0.34,0.53,0.67,0.66,1.07c-0.05,0.11-0.12,0.21-0.14,0.34h0.14
	c0.39-0.69,0.62-1.44,1.21-2.05c0.56-0.55,1.11-1.09,1.88-1.32C70.55,64.58,70.78,64.98,71,65.16z"/>
<path class="st2" d="M78.3,64.9c-0.27,0.13-0.48,0.01-0.73-0.09C77.83,64.7,78.07,64.81,78.3,64.9z"/>
<path class="st2" d="M61.47,65.53c-0.49,0.21-1.06,0.38-1.56,0.67c-0.11-0.12,0.07-0.26,0.06-0.41l0.35-0.38
	c0.25-0.11,0.52-0.26,0.81-0.2C61.21,65.34,61.39,65.41,61.47,65.53z"/>
<path class="st6" d="M66.12,65.74c-0.2,0.36-0.38,0.72-0.46,1.12c-0.24,0.07-0.39,0-0.61-0.06c-0.22-0.37-0.01-0.74,0.2-1.07
	c0.18-0.14,0.36-0.46,0.61-0.38C65.92,65.53,66.05,65.58,66.12,65.74z"/>
<path class="st2" d="M80.03,65.94c-0.06,0.03-0.02,0.1-0.03,0.14c-0.09,0.12-0.12,0.31-0.23,0.44c-0.24-0.07-0.41-0.31-0.63-0.44
	c0.08-0.11,0.19-0.25,0.29-0.38c0.04-0.16,0.13-0.28,0.26-0.34C80.07,65.2,80.04,65.73,80.03,65.94z"/>
<path class="st4" d="M73.45,66.92c0.11,0.22-0.07,0.39-0.14,0.58c-0.68,0.43-1.56,0.22-2.16-0.21c0.35-0.44,0.88-0.68,1.41-0.86
	C72.88,66.43,73.27,66.6,73.45,66.92z"/>
<path class="st2" d="M76.22,67.04c0.3,0.27,0.74,0.49,0.98,0.77c-1.02-0.05-2.1,0.11-3.03-0.02c0.08-0.09,0.21-0.31,0.32-0.38
	c0.26,0.12,0.51,0.37,0.84,0.23c0.33-0.21,0.41-0.56,0.38-0.93C75.86,66.79,76.08,66.93,76.22,67.04z"/>
<path d="M70.36,66.81c0.01,0.04-0.04,0.06-0.06,0.09l-0.09-0.03C70.27,66.85,70.28,66.71,70.36,66.81z"/>
<path class="st2" d="M63.84,67.33c0.21,0.21,0.45,0.37,0.75,0.38c0.38-0.08,0.77-0.16,1.01-0.49c0.12,0.06-0.01,0.23,0.11,0.29
	c-0.05,0.14,0.12,0.19,0.06,0.34c-1.07,0.06-2.1,0.02-3.15,0.03l1.04-0.9C63.81,67.03,63.74,67.23,63.84,67.33z"/>
<path class="st6" d="M71.66,67.84c-0.46,0.12-0.77-0.23-1.12-0.43c-0.02-0.09,0.09-0.08,0.14-0.12
	C71.02,67.44,71.4,67.69,71.66,67.84z"/>
<path class="st2" d="M70.8,67.81c-0.17,0.09-0.5,0.09-0.69,0l0.26-0.23C70.5,67.69,70.66,67.71,70.8,67.81z"/>
<path class="st3" d="M78.65,68.28l0.06,0.29l-0.77,0.69c-0.03,1.11,0.06,2.1,0.02,3.17c-0.23,0.18-0.4,0.42-0.69,0.52
	c-0.19-0.17-0.42-0.33-0.58-0.52c0.02-1.07-0.03-2.14-0.03-3.14l-0.75-0.64c-0.32-0.01-0.43,0.34-0.67,0.46
	c-0.11,0.09-0.23,0.14-0.26,0.29c0,0.98,0.08,2.12,0.02,3.15l-0.61,0.46l-0.61-0.49c-0.04-1.15,0-2.12-0.06-3.21
	c-0.29-0.22-0.55-0.45-0.86-0.66c-0.29,0.16-0.49,0.51-0.78,0.66c0.01,1.01,0.11,2.22,0.03,3.24l-0.55,0.46
	c-0.3-0.06-0.47-0.33-0.69-0.49c-0.06-1.07-0.02-2.12-0.03-3.18l-0.77-0.66c-0.38,0.04-0.61,0.54-0.93,0.69
	c0.01,1.07,0.11,2.17,0.03,3.2l-0.52,0.44c-0.27-0.09-0.47-0.37-0.69-0.53c-0.06-1.12-0.02-2.01-0.03-3.11l-0.12-0.12
	c0.57-0.22,1.14-0.56,1.67-0.95c2.53-0.08,5.31-0.07,7.85-0.12C77.76,68.35,78.27,68.12,78.65,68.28z"/>
<path class="st3" d="M66,68.31c0.15,0.26,0.34,0.49,0.58,0.66c0.05,0.29-0.31,0.19-0.32,0.43c0.06,1.09-0.01,2.1,0.06,3.12
	l-0.54,0.49c-0.24-0.04-0.39-0.3-0.61-0.41c-0.06-1.11-0.02-2.03-0.03-3.14c-0.22-0.32-0.59-0.54-0.87-0.78
	c-0.29,0.15-0.51,0.44-0.81,0.63c0.03,1.09,0.06,2.19,0.06,3.29c-0.17,0.18-0.35,0.34-0.54,0.46c-0.18-0.16-0.6-0.33-0.58-0.61
	c-0.01-1.04,0.03-1.8-0.03-2.89l-1.04-0.89c-0.05-0.09-0.02-0.21-0.03-0.32l0.09-0.06C62.98,68.26,64.45,68.26,66,68.31z"/>
<path class="st2" d="M60.93,68.94c0.07,0.27-0.21,0.52-0.41,0.67c-0.22-0.16-0.46-0.26-0.75-0.26c0.1-0.23,0.39-0.27,0.55-0.43
	C60.51,68.91,60.96,68.44,60.93,68.94z"/>
<path class="st2" d="M79.77,69.34c-0.21,0.11-0.45,0.17-0.61,0.34l-0.02-0.75C79.38,69,79.61,69.16,79.77,69.34z"/>
<path class="st5" d="M76.34,69.92c0.06,0.84-0.05,1.71,0.02,2.66c0.16,0.27,0.44,0.36,0.64,0.58c0.02,0.12-0.06,0.17-0.18,0.14
	c-0.25-0.21-0.39-0.38-0.63-0.55c-0.11-1.2-0.04-2.26-0.06-3.49C76.5,69.34,76.21,69.69,76.34,69.92z"/>
<path class="st5" d="M70.54,70.04c0.06,0.82-0.06,1.72,0.03,2.62c0.2,0.17,0.43,0.4,0.66,0.55c0.03,0.07-0.02,0.12-0.08,0.14
	c-0.27-0.18-0.58-0.39-0.76-0.61c-0.01-1.1-0.1-2.27-0.03-3.41C70.68,69.42,70.48,69.84,70.54,70.04z"/>
<path class="st5" d="M64.8,70.07c-0.09,0.05,0.04,0.08,0.03,0.14c-0.06,0.42,0.01,0.83-0.06,1.21l0.06,0.06v1.27l0.57,0.49
	c0.03,0.08-0.03,0.08-0.08,0.11c-1.19-0.3-0.51-1.6-0.69-2.48l-0.03-1.5C64.96,69.4,64.73,69.84,64.8,70.07z"/>
<path class="st5" d="M67.59,69.46c-0.07,1.02,0.15,2.1,0.03,3.18c0.22,0.24,0.58,0.41,0.69,0.66c-0.36,0.09-0.58-0.39-0.87-0.52
	c0.04-1.12-0.08-2.3-0.03-3.41L67.59,69.46z"/>
<path class="st5" d="M73.42,69.49c-0.02,1.05,0.04,2.14,0.06,3.21c0.22,0.17,0.44,0.42,0.63,0.61c-0.05,0.07-0.11,0.11-0.2,0.09
	c-0.22-0.14-0.39-0.44-0.64-0.52c-0.14-0.92,0.07-1.87-0.09-2.83l0.06-0.06l-0.03-0.61C73.3,69.38,73.37,69.42,73.42,69.49z"/>
<path class="st2" d="M59.77,70.01c-0.09,0.09-0.07,0.23-0.09,0.35c-0.17,0.2-0.47,0.36-0.78,0.38c-0.04-0.45,0.26-0.89,0.55-1.19
	C59.7,69.56,59.7,69.84,59.77,70.01z"/>
<path class="st5" d="M62.02,69.72c-0.03,0.99,0.04,2.02,0.06,3.03c0.14,0.22,0.49,0.34,0.61,0.58c-0.03,0.09-0.13,0.05-0.2,0.06
	l-0.61-0.55c0.04-1.11-0.09-2.17,0-3.26L62.02,69.72z"/>
<path class="st2" d="M80.35,69.89c0.23,0.34,0.49,0.71,0.54,1.16c-0.27,0.08-0.57-0.12-0.81-0.29c-0.13-0.12-0.22-0.33-0.26-0.52
	c0-0.23,0.07-0.48,0.29-0.57C80.19,69.76,80.23,69.85,80.35,69.89z"/>
<path class="st5" d="M56.71,72.09c0.5,0.72,1.17,1.26,1.88,1.76c-0.03,0.05-0.05,0.23-0.14,0.14c-0.81-0.54-1.4-1.14-1.91-1.91
	v-0.23C56.65,71.86,56.63,72.02,56.71,72.09z"/>
<path class="st5" d="M82.89,72.46v0.09c-0.5,0.64-0.99,1.13-1.67,1.53c-0.06-0.03-0.06-0.09-0.03-0.14
	c0.63-0.42,1.06-0.98,1.64-1.52L82.89,72.46z"/>
<path class="st2" d="M60.9,73.82c-0.07-0.26-0.43-0.31-0.41-0.55l0.41-0.34C60.99,73.23,60.97,73.55,60.9,73.82z"/>
<path class="st2" d="M79.54,73.62c-0.04,0.19-0.24,0.31-0.31,0.49l-0.03-0.93L79.54,73.62z"/>
<path class="st5" d="M80.93,74.11c-0.01,0.05,0.02,0.12-0.03,0.14h-0.06C80.84,74.19,80.83,74.08,80.93,74.11z"/>
<path class="st3" d="M74.06,74.37c-0.53,0.76-1.12,1.49-1.76,2.25c0.24,0.32,0.54,0.74,0.87,0.98c0.46-0.45,0.74-0.99,1.18-1.41
	c0.38,0.33,0.77,0.84,1.1,1.21c0.98,1.18,1.89,2.19,2.88,3.34c-0.01,0.18-0.07,0.35-0.17,0.49c-1.19-0.04-2.46,0.09-3.64,0
	c0.66-0.77,1.19-1.57,1.91-2.34c-0.29-0.34-0.56-0.71-0.87-1.01c-0.39,0.41-0.79,0.97-1.16,1.39h-0.08
	c-1.36-1.58-2.72-3.19-4.1-4.88l0.06-0.06c0.62-0.01,1.27,0.03,1.88-0.03C72.73,74.44,73.43,74.26,74.06,74.37z"/>
<path class="st3" d="M78.3,74.37c-0.18,0.31-0.47,0.54-0.64,0.81l-0.92,1.18v0.14c0.3,0.27,0.56,0.63,0.81,0.93
	c0.46-0.39,0.77-1.01,1.21-1.39c0.01,0.72,0.1,1.54,0.02,2.26c-0.04,0.19-0.03,0.48-0.11,0.69l-0.14-0.09l-3.87-4.51
	c0.19-0.14,0.59-0.02,0.84-0.06C76.5,74.33,77.35,74.33,78.3,74.37z"/>
<path class="st3" d="M65.25,74.48c-0.54,0.67-1.14,1.36-1.7,1.96c0.16,0.38,0.51,0.68,0.78,1.01c0.42-0.38,0.78-0.97,1.24-1.39
	c0.26,0.19,0.41,0.38,0.58,0.66c0.36,0.39,0.76,0.84,1.04,1.3h0.06c0.87,1.12,1.81,2.1,2.6,3.23h-4.19
	c0.67-0.84,1.31-1.61,1.99-2.39c-0.26-0.34-0.51-0.66-0.81-1.01c-0.25,0.09-0.35,0.42-0.54,0.58c-0.21,0.27-0.44,0.53-0.69,0.77
	c-1.4-1.62-2.69-3.12-3.98-4.82c1.08,0.02,2.13-0.04,3.2-0.06l0.43,0.06V74.48z"/>
<path class="st3" d="M69.56,74.37c-0.51,0.71-1.09,1.39-1.65,2.05c0.23,0.43,0.56,0.63,0.81,1.04h0.06l1.09-1.3
	c0.19,0.01,0.24,0.21,0.38,0.26c0.57,0.8,1.31,1.54,1.96,2.39c0.71,0.85,1.44,1.59,2.02,2.43l-0.06,0.06
	c-1.36-0.02-2.65,0.05-3.98-0.06c0.61-0.81,1.29-1.48,1.88-2.25l-0.78-0.96c-0.3,0.06-0.34,0.42-0.55,0.61l-0.64,0.73
	c-1.44-1.73-2.71-3.17-4.1-4.97l0.18-0.06L69.56,74.37z"/>
<path class="st5" d="M70.05,80.6c0.49-0.53,0.94-1.19,1.47-1.73c0.07,0.03,0.07,0.13,0.02,0.18c-0.51,0.56-0.98,1.19-1.47,1.79
	l-0.21-0.14c-1.46-1.82-2.82-3.53-4.32-5.25l-1.21,1.47l-0.09-0.09c0.41-0.46,0.88-1.14,1.36-1.61
	C67.14,77.06,68.51,78.74,70.05,80.6z"/>
<path class="st5" d="M78.73,75.29c0.01,0.26-0.23,0.42-0.34,0.64l-0.87,1.01c-0.02-0.02-0.04-0.07-0.09-0.06
	C77.81,76.33,78.28,75.79,78.73,75.29z"/>
<path class="st5" d="M69.96,75.32c1.52,1.74,2.95,3.56,4.39,5.26h0.09c0.45-0.6,0.96-1.13,1.44-1.76c0.04-0.01,0.09,0.01,0.09,0.06
	v0.09c-0.48,0.64-1.01,1.15-1.48,1.82c-0.26,0.03-0.39-0.33-0.58-0.49c-1.27-1.53-2.65-3.17-3.92-4.7h-0.14
	c-0.36,0.47-0.76,0.87-1.1,1.32c-0.02-0.01-0.03-0.04-0.06-0.03c0.27-0.59,0.82-1.01,1.21-1.56H69.96z"/>
<path class="st5" d="M74.55,75.52c1.29,1.63,2.66,3.02,3.9,4.65v0.09h-0.09l-3.38-3.92c-0.2-0.28-0.41-0.51-0.64-0.73
	c-0.44,0.52-0.72,0.92-1.21,1.44c-0.06,0.01-0.11-0.01-0.14-0.06l1.33-1.64L74.55,75.52z"/>
<path class="st5" d="M65.48,80.58c0.19-0.02,0.24-0.31,0.38-0.38l1.19-1.39l0.11,0.02c-0.49,0.69-1.07,1.26-1.59,1.94h-0.09
	l-1.15-1.36l-2.97-3.58l0.03-0.2C62.71,77.2,64.17,78.98,65.48,80.58z"/>
<path class="st3" d="M62.14,77.31c0.96,1.21,2.01,2.31,2.97,3.61c0.11,0.07,0.23,0.16,0.26,0.32l-0.06,0.06
	c-1.07,0.09-2.16-0.04-3.21,0c-0.11-0.26-0.25-0.5-0.23-0.81c0.41-0.51,0.87-1.04,1.3-1.56l-0.81-0.95l-0.84,0.92l-0.09-0.12
	c-0.12-0.77-0.02-1.52-0.09-2.31C61.68,76.68,61.94,77.01,62.14,77.31z"/>
<path class="st5" d="M62.68,78.9v0.09c-0.33,0.31-0.56,0.71-0.89,1.04h-0.06v-0.17c0.37-0.31,0.51-0.74,0.92-1.01L62.68,78.9z"/>
<path class="st2" d="M46.58,81.21c0.39,0.42,0.34,1.09,0.17,1.56c-0.26,0.41-0.59,0.7-1.07,0.75c-0.61,0.05-1.19-0.24-1.44-0.75
	c-0.31-0.48-0.17-1.09,0.12-1.53c0.39-0.49,0.98-0.6,1.59-0.49C46.2,80.86,46.38,80.98,46.58,81.21z"/>
<path class="st2" d="M96.57,81.56c0.26,0.46,0.14,1.12-0.11,1.56c-0.25,0.29-0.67,0.52-1.1,0.55c-0.51-0.04-1.04-0.33-1.27-0.75
	c-0.23-0.48-0.19-0.98,0.03-1.44c0.31-0.4,0.76-0.69,1.29-0.67C95.88,80.87,96.33,81.14,96.57,81.56z"/>
<path class="st5" d="M62.77,82.54l-0.11,0.11c-0.06-0.03-0.12-0.16-0.06-0.23C62.66,82.46,62.73,82.47,62.77,82.54z"/>
<path class="st5" d="M71.31,82.54c-0.18,0.2-0.45,0.39-0.63,0.61c0.07,1.92,0.05,3.84,0.06,5.82c-0.04,0.02-0.09,0.13-0.18,0.09
	c-0.06-1.41-0.02-2.89-0.03-4.39l-0.06-0.06l0.03-1.64l0.64-0.55C71.21,82.43,71.25,82.53,71.31,82.54z"/>
<path class="st5" d="M68.4,82.65c-0.23,0.21-0.51,0.3-0.64,0.58c0.06,1.32,0.02,2.34,0.03,3.67c-0.06,0.04-0.09,0.14-0.18,0.11
	c-0.06-0.72,0.01-1.5-0.06-2.22c-0.01-0.56,0.03-1.1-0.03-1.67l0.75-0.66C68.38,82.46,68.48,82.54,68.4,82.65z"/>
<path class="st5" d="M74.2,82.48v0.06l-0.64,0.54c0.01,1.26,0.11,2.59,0.03,3.78c-0.03,0.07-0.12,0.1-0.2,0.12
	c-0.06-1.35-0.02-2.69-0.03-3.99L74,82.45C74.07,82.46,74.15,82.43,74.2,82.48z"/>
<path class="st5" d="M76.89,82.54c-0.09,0.21-0.27,0.27-0.44,0.43c-0.01,0.25,0.19,0.69-0.17,0.81c-0.06-0.27-0.01-0.59-0.06-0.86
	c0.16-0.17,0.36-0.37,0.58-0.46L76.89,82.54z"/>
<path class="st5" d="M65.51,82.54c-0.08,0.32-0.47,0.36-0.58,0.66c0.01,0.23,0.11,0.57-0.09,0.72c-0.03,0-0.07-0.01-0.09,0.03
	l-0.03-0.96l0.61-0.52C65.41,82.48,65.48,82.46,65.51,82.54z"/>
<path class="st3" d="M69.3,83.2c-0.01,1.94,0.12,4,0.11,5.98l0.81,0.69c0.35-0.23,0.56-0.44,0.89-0.72c-0.12-1.34,0-2.49-0.09-3.81
	l0.06-0.06c-0.06-0.69,0-1.36-0.06-2.02l0.55-0.46c1.02,0.12,0.56,1.41,0.72,2.11v2.08c0.25,0.21,0.54,0.54,0.89,0.63
	c0.26-0.3,0.79-0.43,0.78-0.89c-0.06-1.1-0.02-2.31-0.03-3.46l0.55-0.49c0.28,0.11,0.51,0.34,0.66,0.54
	c-0.38,0.65,0.56,0.79,0.78,1.16c0.36-0.18,0.66-0.49,0.89-0.78l-0.02-0.54c0.19-0.23,0.47-0.51,0.69-0.15
	c-0.21,0.54-0.44,0.96-0.76,1.44c-1.48,2.64-3.91,4.71-6.41,6.49c-0.23,0.06-0.34-0.17-0.55-0.26c-2.84-2-5.38-4.36-6.96-7.56
	c-0.06-0.15,0.06-0.27,0.21-0.32c0.21,0.04,0.37,0.24,0.55,0.38c0.08,0.36-0.22,0.77,0.26,0.96c0.19,0.14,0.45,0.43,0.69,0.46
	c0.33-0.38,1.04-0.57,0.72-1.27c0.16-0.17,0.34-0.35,0.55-0.52c0.26,0.13,0.38,0.26,0.58,0.46c0.06,1.2,0.12,2.29,0.06,3.44
	c0.06,0.06,0.01,0.21,0.03,0.31c0.3,0.23,0.56,0.49,0.9,0.67l0.78-0.64c-0.04-1.23-0.04-2.52,0-3.75l0.58-0.52L69.3,83.2z"/>
<path d="M82.71,89.32c0.02,0.22,0.09,0.44-0.06,0.61c-0.51,1.22-1.38,2.72-2.82,3.09c-0.79,0.13-1.4-0.24-2.14-0.32
	c-0.71-0.11-1.27-0.39-2.02-0.32c-0.55,0.62-0.91,1.41-1.19,2.14c-0.27,0.27-0.13,0.79-0.61,0.89c-0.61,0.08-1.14-0.2-1.76-0.14
	c-0.49-0.08-0.99-0.08-1.53-0.11c-1.27-0.06-2.61,0.06-3.81,0.34c-0.54-0.09-0.62-0.67-0.81-1.09c-0.26-0.66-0.61-1.24-1.04-1.85
	c-0.31-0.13-0.71,0-1.07,0c-0.45,0.02-0.85,0.17-1.3,0.2c-0.44,0.16-0.92,0.23-1.39,0.32c-1.65,0.16-2.64-1.42-3.29-2.68
	c-0.07-0.27-0.23-0.58-0.09-0.87c0.07-0.48,0.54-0.76,0.98-0.93c0.6-0.18,1.46-0.27,2.02-0.02c0.33,0.17,0.18,0.52,0.38,0.77
	c0.02,0.28,0.17,0.58,0.32,0.84c0.31,0.01,0.64-0.12,0.98-0.11c0.21-0.14,0.52-0.08,0.75-0.17c0.89-0.14,1.87-0.07,2.77-0.17
	c1.04,0.43,1.71,1.41,2.03,2.45c0.03,0.19,0.09,0.36,0.17,0.52c1.38-0.16,2.7-0.19,4.07-0.09c0.24-0.21,0.1-0.48,0.29-0.72
	c0.31-0.99,1.01-1.98,2.11-2.19c1.47-0.01,2.89,0.12,4.24,0.41c0.32-0.34,0.44-0.86,0.55-1.27c0.38-0.69,1.29-0.49,1.96-0.4
	C81.93,88.54,82.5,88.83,82.71,89.32z"/>
<path class="st2" d="M81.1,89.73c0.12,0.76-0.71,0.37-1.1,0.43c-0.21-0.08-0.39-0.06-0.61-0.14l-0.11-0.06l0.29-0.77
	C80.06,89.49,80.52,89.63,81.1,89.73z"/>
<path class="st2" d="M61.18,90.01l-0.11,0.09c-0.54,0.04-1.08,0.15-1.62,0.08c-0.04-0.12-0.16-0.22-0.14-0.38
	c0.59-0.04,1.05-0.21,1.53-0.52C61.07,89.46,61.01,89.79,61.18,90.01z"/>
<path class="st2" d="M58.18,89.81c1.04,1.12,2.69,0.65,4.07,0.52c1.19-0.21,2.44-0.42,3.67-0.38c0.31,0.12,0.56,0.22,0.84,0.44
	c0.59,0.56,0.97,1.26,1.12,2.07l0.06,0.06c-0.12,0.04-0.28-0.16-0.41-0.2c-1.12-0.53-2.56-0.11-3.78-0.02
	c-0.4,0.16-0.88,0.13-1.27,0.31c-0.71,0.08-1.35,0.46-2.08,0.17c-1.27-0.36-1.93-1.65-2.49-2.68c-0.03-0.19-0.09-0.46,0.06-0.61
	l-0.03-0.03l0.06-0.06C58.12,89.49,58.15,89.66,58.18,89.81z"/>
<path class="st2" d="M82.57,89.69c-0.49,1.23-1.35,2.83-2.8,3.12c-0.73,0.03-1.28-0.23-1.9-0.38c-0.28-0.01-0.62-0.1-0.87-0.14
	c-1.08-0.15-2.2-0.46-3.35-0.18c-0.43-0.01-0.77,0.21-1.12,0.38c0.24-1.07,0.93-2.29,2.08-2.62c1.77,0.03,3.43,0.24,5.11,0.58
	c0.49-0.03,1,0.08,1.47-0.09c0.47,0.01,0.83-0.33,1.12-0.69c-0.02-0.07,0.01-0.19,0.11-0.26C82.65,89.36,82.48,89.61,82.57,89.69z"
	/>
<path class="st7" d="M75.7,90.5c-0.17,0.24-0.14,0.59-0.14,0.87c0.07,0.19,0.29,0.11,0.41,0.06c0.16-0.26,0.03-0.62,0.06-0.87
	c0.01-0.05,0.1-0.01,0.14-0.02c-0.12,0.31,0.02,0.74-0.23,0.98c-0.19,0.04-0.43,0.05-0.52-0.14c-0.11-0.31,0.09-0.61,0.03-0.89
	C75.55,90.45,75.6,90.53,75.7,90.5z"/>
<path class="st7" d="M65.43,90.71c0.06,0.16-0.09,0.27-0.2,0.34l0.29,0.46c-0.35,0.16-0.24-0.36-0.49-0.41
	c-0.07,0.14,0.02,0.27,0.03,0.41l-0.26,0.02l0.06-0.17c-0.11-0.28,0.09-0.61-0.06-0.84C65.01,90.58,65.37,90.39,65.43,90.71z"/>
<path class="st7" d="M66.53,90.82c-0.03,0.26,0.08,0.56-0.21,0.72l-0.58,0.03c-0.04-0.29,0.09-0.69,0-1.04
	C66.04,90.54,66.4,90.53,66.53,90.82z"/>
<path class="st7" d="M77,91.23c0.07-0.14,0.1-0.41,0.09-0.58c0.04,0.01,0.11-0.03,0.14,0.03c-0.2,0.31-0.09,0.64-0.2,0.98
	c-0.19-0.24-0.25-0.61-0.46-0.84c-0.12,0.24-0.12,0.56-0.12,0.81c-0.18-0.09-0.02-0.31-0.02-0.46c-0.05-0.17,0.15-0.39,0-0.58
	c0.07-0.09,0.14,0.04,0.23,0C76.81,90.78,76.8,91.04,77,91.23z"/>
<path class="st7" d="M64.21,90.79c0.11,0.33,0.27,0.54,0.38,0.78H64.3c0.06-0.04,0.02-0.11,0.03-0.17
	c-0.09-0.13-0.22-0.05-0.35-0.06c-0.09,0.04-0.04,0.13-0.06,0.2l0.06,0.06l-0.14,0.06c0.07-0.18-0.03-0.39,0.12-0.57
	c-0.03-0.14,0.04-0.23,0.06-0.35l-0.06-0.06C64.1,90.41,64.1,90.78,64.21,90.79z"/>
<path class="st8" d="M65.23,90.79c0.04,0.1-0.08,0.13-0.09,0.21h-0.09L65,90.62C65.1,90.59,65.3,90.63,65.23,90.79z"/>
<path class="st8" d="M66.3,90.73l0.03,0.58c-0.04,0.08-0.08,0.1-0.14,0.17h-0.23c-0.09-0.3,0.05-0.61,0.06-0.86
	C66.13,90.57,66.2,90.69,66.3,90.73z"/>
<path class="st7" d="M63.61,90.68c-0.11,0.32-0.03,0.69-0.14,1.04h-0.03c-0.16-0.14-0.11-0.38-0.29-0.52
	c-0.21,0.08,0.01,0.38-0.14,0.52v0.09c-0.19,0.01-0.11-0.24-0.2-0.34c-0.19-0.16-0.11-0.43-0.29-0.58c0.02-0.09,0.15-0.04,0.23-0.06
	c0.03,0.18,0.04,0.44,0.2,0.61c0.13-0.06,0.06-0.16,0.09-0.29c0.05-0.1,0.03-0.24-0.06-0.32h-0.03c0.04-0.11,0.25-0.04,0.32-0.06
	c-0.09,0.17,0.06,0.39,0.17,0.55c0.04-0.17,0.18-0.42,0-0.58C63.47,90.66,63.55,90.68,63.61,90.68z"/>
<path class="st7" d="M77.81,90.76c-0.23,0.24-0.12,0.51-0.23,0.81l0.03,0.17c-0.07-0.01-0.17,0.03-0.23-0.03
	c0.19-0.32,0.12-0.67,0.18-1.01C77.61,90.78,77.71,90.76,77.81,90.76z"/>
<path class="st7" d="M78.76,90.93c0.1,0.09-0.07,0.17-0.03,0.23c-0.07-0.06-0.07-0.21-0.2-0.2c-0.14,0.08-0.03,0.15-0.09,0.26
	c-0.04,0.23-0.17,0.47-0.09,0.69c-0.11,0.06-0.17-0.08-0.23-0.08c0.16-0.1,0.06-0.2,0.09-0.35c0.1-0.15,0.15-0.36,0.09-0.55
	c-0.04-0.05-0.12-0.01-0.18-0.02l-0.09,0.14c-0.07-0.05,0.02-0.16,0.03-0.23C78.32,90.9,78.5,90.89,78.76,90.93z"/>
<path class="st7" d="M62.37,91.08c0.03,0.14-0.03,0.26-0.15,0.34l0.38,0.43c-0.1,0.07-0.2,0.05-0.29-0.02
	c-0.05-0.12-0.12-0.23-0.23-0.32c-0.12,0.09,0,0.23-0.03,0.34l0.09,0.09L61.88,92c0.06-0.37-0.07-0.66-0.2-0.95
	C61.87,90.98,62.23,90.81,62.37,91.08z"/>
<path class="st8" d="M64.16,91.25c-0.07-0.01-0.17,0.04-0.2-0.06c0.11-0.04,0.01-0.17,0.08-0.23C64.08,91.04,64.2,91.12,64.16,91.25
	z"/>
<path class="st7" d="M79.16,91.02c-0.01,0.02,0.02,0.04,0.03,0.06c-0.11,0.07-0.04,0.22-0.03,0.31c0.04,0.05,0.11,0.09,0.14,0.03
	c0.1-0.09,0.18-0.18,0.15-0.32h0.14c-0.09,0.31-0.6,0.57-0.41,0.96L79,92.03c0.16-0.31,0.08-0.71-0.12-1.01
	C78.97,90.89,79.03,91.02,79.16,91.02z"/>
<path class="st8" d="M62.16,91.34c-0.04,0.05-0.09,0.07-0.14,0.06c-0.09-0.09-0.07-0.22-0.09-0.34c0.05-0.01,0.09-0.04,0.14-0.03
	C62.19,91.07,62.1,91.25,62.16,91.34z"/>
<path class="st7" d="M61.53,91.43c0.05,0.27,0.06,0.62-0.23,0.75c-0.2,0.04-0.35-0.06-0.49-0.14c-0.06-0.23-0.19-0.52-0.06-0.72
	c0.05-0.14,0.2-0.17,0.32-0.21C61.3,91.09,61.47,91.21,61.53,91.43z"/>
<path class="st7" d="M60.52,91.16l0.03,0.23c-0.12-0.08-0.16-0.28-0.38-0.2c-0.12,0.12-0.03,0.31,0.03,0.43l0.17-0.09v0.21
	c-0.05-0.03-0.17-0.09-0.23-0.06c-0.11,0.09-0.04,0.27-0.06,0.4l0.09,0.06h-0.29c0.16-0.28,0.06-0.74,0.09-1.01
	C60.14,91.11,60.32,91.2,60.52,91.16z"/>
<path class="st8" d="M61.33,91.48c0.05,0.19,0.04,0.33,0,0.52c-0.06,0.06-0.14,0.18-0.23,0.09c-0.24-0.19-0.13-0.52-0.2-0.77
	C61.03,91.06,61.32,91.26,61.33,91.48z"/>
<path class="st2" d="M72.24,92.87c-0.05,0.99,1.03,1.2,1.53,1.93c0.05,0.06,0.02,0.16,0.02,0.23l-0.2,0.14
	c-2.13-0.33-4.46-0.47-6.61,0.06c-0.15,0-0.22-0.11-0.29-0.21c0.09-0.44,0.54-0.61,0.84-0.86c0.25-0.34,0.7-0.68,0.66-1.21
	C69.47,92.75,70.96,92.73,72.24,92.87z"/>
<path class="st7" d="M69.93,93.36c-0.14,0.28,0.03,0.58-0.03,0.9c0.03,0.03,0.08,0.06,0.06,0.11h-0.23
	c0.07-0.34-0.02-0.69-0.03-1.04L69.93,93.36z"/>
<path class="st7" d="M70.56,93.53c0.14,0.08,0.09,0.32,0.29,0.38c0-0.16,0.11-0.41-0.06-0.55l0.2-0.02
	c-0.14,0.29,0.05,0.67-0.06,1.01h-0.06c-0.14-0.27-0.32-0.52-0.49-0.77c-0.17,0.19-0.04,0.56,0,0.77c-0.01,0.05-0.12,0.09-0.17,0.03
	c0.12-0.33,0.03-0.71-0.03-1.04C70.35,93.31,70.57,93.33,70.56,93.53z"/>
<path class="st1" d="M55.06,94.26c0.01,0.47-0.5,0.93-0.89,1.15c-0.19,0.11-0.58,0.17-0.78,0.06c-0.31-0.11-0.41-0.31-0.63-0.52
	c0.56-0.47,1.24-1.01,1.79-1.5C54.81,93.58,55.1,93.94,55.06,94.26z"/>
<path class="st1" d="M62.14,99.85c-0.03,0.08,0.04,0.12,0.08,0.17c0.28,1.01-0.07,1.85-0.6,2.62l0.03,0.03
	c-0.55,0.79-1.39,1.58-2.45,1.33c-0.61-0.16-1.2-0.66-1.33-1.29l-0.06-0.72c0.06-0.21,0.11-0.42,0.18-0.63
	c0.49-1.12,1.34-2.46,2.74-2.49C61.29,98.98,61.91,99.29,62.14,99.85z"/>
<path class="st3" d="M64.8,55.23c0,0-0.01-0.06,0.23,0.08c0.24,0.14,0.25,0.23,0.25,0.23s0.19-0.03,0.34,0.17
	c0.15,0.2,0.22,0.35,0.22,0.35l0.16,0c0,0-0.46-0.57-0.39-1.48c0.06-0.81,0.19-1.24,0.29-1.25c0.1-0.01,0.5,0.92,0.54,1.14
	c0.04,0.22-0.1,1.05-0.1,1.05l0.21-0.44c0.32-0.21,0.24-0.18,0.51-0.45c0.2-0.2,0.27-0.28,0.27-0.28s0.09,0.01-0.01,0.25
	c-0.07,0.15,0.33,0.22,0.33,0.32c0,0.11-0.15,0.26-0.15,0.26l0.07,0c0,0,0.28-0.32,0.36-0.08s-0.37,0.55-0.37,0.55l-0.61-0.2
	l-0.49,0.38c0,0-0.08-0.02-0.15,0.11c-0.07,0.13,0.04,0.35,0.04,0.44c0,0.09-0.04,0.23-0.04,0.23s-0.26-0.27-0.51-0.33
	c-0.24-0.07-0.38-0.09-0.38-0.09s-0.42-0.62-0.49-0.67C64.88,55.48,64.8,55.23,64.8,55.23z"/>
<path class="st4" d="M65.56,56.28c0,0,0.3,0.23,0.45,0.96c0.11,0.52,0.38,0.64,0.38,0.64s0.33,0.34,0.24,0.5
	c-0.11,0.2-0.4,0.24-0.59-0.11c-0.19-0.35-0.06-0.68-0.25-1c-0.19-0.32-0.2-0.53-0.23-0.69C65.52,56.42,65.56,56.28,65.56,56.28z"/>
<path class="st4" d="M65.9,53.28c0,0-0.26,0.25-0.31,1.56c-0.03,0.77,0.37,1.2,0.37,1.2s0.26-0.86,0.06-1.24
	C65.79,54.35,65.9,53.28,65.9,53.28z"/>
<path class="st4" d="M67.54,55.19l-0.35,0.36l0.38,0.11c0,0,0.52-0.29,0.34-0.61C67.81,54.88,67.54,55.19,67.54,55.19z"/>
<path class="st4" d="M68.05,57.54l-0.22-1.16c0,0-0.24-0.75,0.24-0.92c0.33-0.11,0.41-0.44,0.41-0.44s0.04,0.59-0.25,0.99
	C67.94,56.4,68.05,57.54,68.05,57.54z"/>
<path class="st4" d="M69.16,56.85l0.06,1.01l-0.46,0.33c0.22-0.83-0.05-1.64-0.05-1.64s0.06,0.03,0.26,0.17
	C69.17,56.87,69.16,56.85,69.16,56.85z"/>
<path class="st4" d="M71.1,55.3c0,0-0.29,0.29-0.34,0.65c-0.05,0.36-0.14,0.68-0.14,0.68l-0.01,1.24l0.52,0.4
	c0,0,0.49-0.46,0.35-0.82c-0.14-0.34-0.55-0.62-0.55-0.62l-0.04-0.28c0,0,0.07-0.36,0.29-0.61c0.23-0.25,0.31-0.33,0.4-0.54
	C71.68,55.19,71.1,55.3,71.1,55.3z"/>
<path class="st4" d="M71.28,54.64l0.4,0.04c0,0-0.11-0.26-0.34-0.42c-0.2-0.14-0.4-0.27-0.4-0.27s0.02,0.06,0.15,0.29
	C71.21,54.52,71.28,54.64,71.28,54.64z"/>
<path class="st4" d="M71.96,56.79c0,0-0.07-0.03-0.26-0.16c-0.19-0.13-0.14-0.19-0.14-0.19s0.1,0.06,0.24-0.21
	c0.15-0.27,0.29-0.19,0.29-0.19L71.96,56.79z"/>
<path class="st4" d="M72.8,52.89c0,0,0.53,0.29,0.41,0.89c-0.11,0.53-0.13,0.25-0.27,0.77c-0.1,0.39-0.12,0.63-0.12,0.63l-0.39-0.28
	c0,0-0.12-0.51,0.12-0.85c0.24-0.34,0.4-0.61,0.36-0.84C72.88,52.99,72.8,52.89,72.8,52.89z"/>
<path class="st3" d="M73.86,54.24c-0.2,0.13-0.29,0.15-0.54,0.44c-0.19,0.22-0.33,0.4-0.28,0.6c0.07,0.28,0.41,0.51,0.41,0.51
	s0.06,0,0.19-0.01c0.13-0.01,0.1-0.35,0.1-0.35s-0.06-0.25-0.01-0.64C73.77,54.38,73.86,54.24,73.86,54.24z"/>
<path class="st3" d="M74.68,54.11c0,0,0.35,0.44,0.28,1.18c-0.06,0.58-0.06,0.52-0.06,0.52s-0.36,0.12-0.42,0.19
	c-0.06,0.07-0.17,0.23-0.17,0.23l-0.5,1.91c0,0-0.17,0.3-0.3,0.29c-0.13-0.01-0.19-0.16-0.19-0.16L73.16,58c0,0,0.06-0.17,0.06-0.27
	s0.03-0.38,0.03-0.38s0.32-0.06,0.44-0.13c0.12-0.07,0.23-0.23,0.23-0.23l-0.11-0.06c0,0-0.1,0.12-0.22,0.15
	c-0.12,0.03-0.26,0.04-0.26,0.04s0.07-0.41,0.12-0.64c0.04-0.23,0.13-0.44,0.13-0.44s0.35-0.02,0.68-0.29
	c0.32-0.26,0.46-0.52,0.46-0.52s0.01-0.29,0.04-0.54C74.76,54.44,74.68,54.11,74.68,54.11z"/>
<path class="st4" d="M73.86,54.24c0,0-0.11,0.44-0.13,0.68c-0.01,0.15,0.06,0.83,0.06,0.83l-0.26,0.04c0,0-0.32-0.41-0.16-0.82
	C73.53,54.57,73.86,54.24,73.86,54.24z"/>
<path class="st4" d="M73.56,56.04c0,0,0.14,0.31,0.11,0.49c-0.03,0.17-0.09,0.55-0.09,0.55s0.01,0,0.12-0.07
	c0.1-0.07,0.1-0.07,0.1-0.07l0.11,0.06c0,0-0.08,0.08-0.13,0.14c-0.04,0.06-0.17,0.12-0.17,0.12s-0.01,0.29-0.04,0.45
	s-0.1,0.73-0.1,0.73s0.16,0.03,0.26-0.13c0.1-0.16,0.13-0.38,0.13-0.38l0.31-1.21c0,0-0.04-0.25-0.13-0.47
	c-0.09-0.22-0.17-0.31-0.17-0.31s-0.01,0.01-0.12,0.04C73.64,56.02,73.56,56.04,73.56,56.04z"/>
<polygon class="st5" points="64.85,56.18 65.01,56.09 65.91,59.1 65.76,59.35 "/>
<polygon class="st5" points="66.18,58.62 66.55,58.67 66.74,59.09 66.36,59.16 "/>
<polygon class="st5" points="66.93,59.01 67.22,58.97 66.85,58.44 66.67,58.6 "/>
<polygon class="st5" points="73.6,59.74 73.81,59.81 73.77,60.32 73.56,60.26 "/>
<polygon class="st5" points="73.61,58.56 73.97,58.34 73.78,59.07 73.44,59.03 "/>
<path class="st4" d="M59.38,88.67c0.99-0.07,1.51-0.07,1.32,0.22c-0.2,0.3-0.55,0.42-0.87,0.5c-0.32,0.07-0.79,0.17-0.79,0.17
	l0.02,0.37c0,0-0.61,0.02-0.7-0.4C58.23,88.95,59.38,88.67,59.38,88.67z"/>
<path class="st4" d="M65.36,92.47c0,0,1.27-0.2,1.61,0c0.35,0.2,0.84,0.27,0.72,0.67c-0.12,0.4-0.17,0.42-0.52,0.72
	c-0.35,0.3-0.72,0.7-0.72,0.7s-0.27-0.87-0.55-1.22S65.36,92.47,65.36,92.47z"/>
<path class="st4" d="M72.76,92.82c0.05-0.34,0.74-0.4,1.17-0.45c0.42-0.05,1.27,0.02,1.27,0.02s-0.4,0.32-0.65,0.89
	c-0.25,0.57-0.45,1.17-0.45,1.17s-0.47-0.5-0.84-0.84C72.88,93.27,72.71,93.14,72.76,92.82z"/>
<path class="st4" d="M81.15,88.72c0.6,0.15,1.14,0.35,0.99,0.52c-0.07,0.09-0.19,0.51-0.61,0.76c-0.14,0.08-0.07-0.47-0.18-0.48
	c-0.22-0.02-1.32-0.17-1.42-0.52c-0.1-0.35,0.32-0.42,0.62-0.37C80.85,88.67,81.15,88.72,81.15,88.72z"/>
<path class="st2" d="M67.63,62.81c0,0,0.37,0.96,0.47,1.43c0.1,0.47,0.29,1.37,0.29,1.37l0.21-0.16c0,0-0.11-0.76-0.29-1.41
	c-0.19-0.67-0.47-1.25-0.47-1.25L67.63,62.81z"/>
<path class="st2" d="M68.07,62.78c0,0,0.37,0.96,0.47,1.43c0.1,0.47,0.22,1.04,0.22,1.04l0.21-0.16c0,0-0.05-0.43-0.23-1.08
	c-0.19-0.67-0.47-1.25-0.47-1.25L68.07,62.78z"/>
<path class="st2" d="M68.43,62.78c0,0,0.37,0.96,0.47,1.43c0.1,0.47,0.18,0.82,0.18,0.82l0.21-0.16c0,0-0.01-0.2-0.19-0.86
	c-0.19-0.67-0.06-1.29-0.06-1.29L68.43,62.78z"/>
<path class="st2" d="M68.02,60.62c0,0-0.26,0.47-0.41,0.8c-0.29,0.61-0.25,0.96-0.25,0.96l0.25,0.02c0,0-0.04-0.38,0.25-1.02
	c0.16-0.37,0.45-0.82,0.45-0.82L68.02,60.62z"/>
<path class="st2" d="M68.28,60.84c0,0-0.13,0.24-0.29,0.57c-0.29,0.61-0.25,0.96-0.25,0.96l0.84-0.49c0,0-0.05,0.21,0.06-0.49
	c0.06-0.39,0.2-0.65,0.2-0.65L68.28,60.84z"/>
<path class="st2" d="M69.08,60.56c0,0,0.05-0.02-0.1,0.31c-0.29,0.61-0.25,0.96-0.25,0.96l0.27-0.1c0,0-0.06-0.25,0.22-0.9
	c0.16-0.37,0.12-0.29,0.12-0.29L69.08,60.56z"/>
<path class="st2" d="M68.43,65.81c0,0-0.04,0.84,0.06,1.31c0.1,0.47,0.18,0.94,0.18,0.94l0.22-0.14c0,0-0.13-0.31-0.2-0.98
	c-0.1-0.86-0.1-1.29-0.1-1.29L68.43,65.81z"/>
<path class="st2" d="M68.75,65.48c0,0,0.03,0.78,0.13,1.25c0.1,0.47,0.04,0.65,0.04,0.65l0.21-0.23c0,0,0.02,0.06-0.06-0.61
	c-0.1-0.86-0.1-1.29-0.1-1.29L68.75,65.48z"/>
<path class="st2" d="M69.12,65.24c0,0,0.03,0.78,0.13,1.25c0.1,0.47,0.2,0.96,0.2,0.96l0.21-0.12c0,0-0.13-0.35-0.2-1.02
	c-0.1-0.86-0.1-1.29-0.1-1.29L69.12,65.24z"/>
<polygon class="st2" points="67.73,62.54 68.55,62.13 68.63,62.58 "/>
<polygon class="st2" points="68.71,67.84 69.57,67.13 69.54,67.39 68.9,67.92 "/>
<g>
	<path class="st2" d="M39.88,71.58c0.03-0.23,0.05-0.47,0.06-0.71c0.01-0.24,0.01-0.47-0.01-0.71c1.44-0.27,2.86-0.6,4.25-0.97
		c-1.3-0.51-2.68-1.05-4.15-1.59c0.03-0.14,0.04-0.28,0.05-0.42c0.01-0.14,0-0.29-0.02-0.43c1.4-0.36,2.8-0.76,4.2-1.2
		c-1.38-0.54-2.74-1-4.1-1.39c0.03-0.13,0.04-0.25,0.05-0.39c0-0.13,0-0.25-0.02-0.38c1.7,0.67,3.59,1.38,5.68,2.13
		c-0.03,0.14-0.05,0.29-0.06,0.44c-0.01,0.14,0.01,0.29,0.03,0.44c-1.37,0.35-2.74,0.75-4.13,1.2c1.25,0.55,2.59,1.08,4.02,1.6
		c-0.03,0.14-0.05,0.28-0.06,0.43c-0.01,0.14,0.01,0.29,0.03,0.43C43.78,70.47,41.83,70.99,39.88,71.58z"/>
	<path class="st2" d="M44,60.19c-0.14-0.04-0.27-0.07-0.41-0.11c-0.86-0.23-1.66-0.44-2.4-0.54c0.18-0.56,0.33-1.11,0.47-1.63
		c0.14-0.53,0.27-1.03,0.37-1.51c0.11,0.05,0.23,0.1,0.34,0.13c0.11,0.03,0.23,0.04,0.35,0.06c-0.24,0.72-0.44,1.32-0.58,1.81
		c0.27,0.1,0.54,0.17,0.8,0.24c0.13,0.03,0.26,0.07,0.39,0.1l0.55,0.15c0.15-0.65,0.3-1.27,0.42-1.84c0.1,0.04,0.21,0.09,0.33,0.12
		c0.11,0.03,0.23,0.04,0.36,0.06c-0.23,0.7-0.42,1.3-0.56,1.8l0.98,0.26c0.46,0.12,0.82,0.22,1.1,0.26
		c0.11-0.49,0.24-1.11,0.36-1.86c0.1,0.04,0.2,0.08,0.31,0.11c0.13,0.03,0.26,0.05,0.4,0.07c-0.26,0.87-0.45,1.53-0.57,1.96
		c-0.11,0.4-0.2,0.79-0.27,1.19C45.97,60.71,45.04,60.46,44,60.19z"/>
	<path class="st2" d="M47.15,54.53l0.05-0.1c0.66,0.15,1.19-0.1,1.46-0.66c0.25-0.52,0.1-1-0.35-1.22
		c-0.45-0.22-0.79,0.02-1.35,0.42c-0.93,0.67-1.5,1.01-2.34,0.6c-0.89-0.43-1.22-1.42-0.68-2.53c0.22-0.46,0.53-0.8,0.94-1.04
		c0.25,0.25,0.49,0.47,0.71,0.65l-0.04,0.08c-0.53-0.07-0.99,0.19-1.22,0.66c-0.22,0.45-0.09,0.88,0.31,1.07
		c0.42,0.2,0.74,0,1.28-0.4c0.49-0.36,0.84-0.69,1.17-0.8c0.41-0.14,0.8-0.11,1.22,0.09c1.02,0.49,1.35,1.56,0.78,2.73
		c-0.28,0.58-0.61,0.98-1.01,1.18C47.81,55.05,47.5,54.8,47.15,54.53z"/>
	<path class="st2" d="M49.55,47.16c-0.22-0.18-0.81-0.64-1.77-1.38c-0.04,0.05-0.07,0.09-0.11,0.14c-0.32,0.4-0.59,0.79-0.81,1.17
		c-0.1-0.1-0.19-0.19-0.29-0.27c-0.09-0.07-0.19-0.14-0.29-0.2c0.5-0.56,0.98-1.13,1.45-1.71c0.47-0.58,0.92-1.18,1.36-1.78
		c0.08,0.08,0.16,0.16,0.25,0.24c0.1,0.08,0.2,0.15,0.32,0.23c-0.33,0.3-0.65,0.65-0.97,1.05c-0.03,0.04-0.07,0.09-0.11,0.13
		c0.45,0.41,0.92,0.79,1.39,1.16c0.98,0.79,1.84,1.46,2.63,2c-0.17,0.17-0.34,0.35-0.49,0.54c-0.15,0.18-0.28,0.37-0.4,0.56
		C51.04,48.4,50.32,47.78,49.55,47.16z"/>
	<path class="st2" d="M57.63,40.03l-1.02-3.88c0.12-0.02,0.23-0.06,0.35-0.11c0.11-0.05,0.22-0.1,0.33-0.17
		c1.1,1.03,2.2,1.99,3.3,2.89c0.14-1.42,0.23-2.88,0.27-4.37c0.14-0.03,0.25-0.07,0.37-0.12c0.12-0.05,0.24-0.11,0.35-0.18
		l1.98,3.54c0.31,0.55,0.6,1.06,0.91,1.49c-0.24,0.07-0.46,0.14-0.68,0.24c-0.22,0.09-0.43,0.2-0.63,0.31
		c-0.24-0.51-0.41-0.87-0.51-1.06l-1.28-2.38c-0.13,1.47-0.22,2.9-0.29,4.3c-0.06,0.01-0.12,0.03-0.17,0.05
		c-0.05,0.02-0.1,0.04-0.15,0.08c-1.13-1.02-2.18-1.93-3.16-2.73l0.48,1.7c0.21,0.73,0.39,1.36,0.61,1.89
		c-0.12,0.02-0.23,0.05-0.33,0.09c-0.11,0.04-0.2,0.1-0.3,0.17C57.84,40.86,57.69,40.27,57.63,40.03z"/>
	<path class="st2" d="M67.54,35.86c-0.01-1.08-0.04-2.05-0.13-2.88c0.24,0.03,0.49,0.04,0.73,0.04c0.24,0,0.49-0.02,0.72-0.06
		c-0.06,0.85-0.07,1.82-0.05,2.88c0.01,1.01,0.03,1.96,0.13,2.87c-0.24-0.02-0.49-0.04-0.73-0.03c-0.24,0-0.49,0.02-0.73,0.05
		C67.56,37.77,67.55,36.82,67.54,35.86z"/>
	<path class="st2" d="M73.39,36.58c0.08-0.23,0.17-0.46,0.26-0.7c0.05-0.14,0.1-0.29,0.16-0.43c0.3-0.83,0.57-1.6,0.74-2.31
		c0.22,0.1,0.41,0.18,0.61,0.25c0.52,0.19,1.06,0.35,1.63,0.55c0.89,0.32,1.5,0.64,1.87,1.24c0.4,0.65,0.46,1.5,0.13,2.41
		c-0.68,1.89-2.12,2.44-4.29,1.65c-0.54-0.2-0.97-0.38-1.34-0.51c-0.21-0.08-0.41-0.14-0.58-0.19
		C72.87,37.98,73.12,37.32,73.39,36.58z M74.55,38.77c1.38,0.5,2.36-0.02,2.93-1.56c0.57-1.58,0.17-2.42-1.28-2.95
		c-0.1-0.04-0.29-0.1-0.54-0.18c-0.31,0.77-0.62,1.6-0.93,2.48c-0.23,0.63-0.47,1.28-0.7,1.97C74.21,38.63,74.39,38.71,74.55,38.77z
		"/>
	<path class="st2" d="M82.23,39.53c0.69-0.83,1.28-1.59,1.76-2.29c0.16,0.18,0.33,0.34,0.51,0.49c0.18,0.15,0.37,0.29,0.58,0.41
		c-0.61,0.61-1.24,1.34-1.91,2.16c-0.58,0.7-1.06,1.29-1.4,1.79c0.47,0.37,0.99,0.75,1.56,1.13c-0.08,0.07-0.16,0.16-0.25,0.26
		c-0.07,0.09-0.14,0.19-0.21,0.3c-0.47-0.43-0.9-0.82-1.31-1.16c-0.37-0.31-0.78-0.61-1.23-0.94C80.98,41.01,81.6,40.29,82.23,39.53
		z"/>
	<path class="st2" d="M91.17,43.87c0.06,0.11,0.11,0.2,0.18,0.29c0.06,0.09,0.13,0.17,0.2,0.23c-1.14,1.67-2.28,3.45-3.4,5.32
		c-0.12-0.21-0.25-0.41-0.4-0.61c-0.14-0.2-0.29-0.38-0.45-0.57c0.38-0.51,0.72-0.99,1.05-1.44c-0.18-0.28-0.37-0.54-0.56-0.81
		c-0.19-0.27-0.38-0.53-0.59-0.79c-0.62,0.19-1.19,0.36-1.72,0.5c-0.05-0.1-0.12-0.21-0.19-0.31c-0.07-0.1-0.15-0.2-0.25-0.31
		C87.1,44.96,89.14,44.45,91.17,43.87z M88.22,45.98c0.14,0.2,0.3,0.4,0.45,0.6c0.4-0.55,0.79-1.13,1.14-1.72
		c-0.69,0.13-1.36,0.3-2.01,0.5C87.93,45.57,88.07,45.77,88.22,45.98z"/>
	<path class="st2" d="M92.46,51.07c1-0.39,1.9-0.78,2.69-1.16c0.04,0.16,0.08,0.3,0.14,0.44c0.06,0.14,0.12,0.28,0.2,0.41
		c-0.77,1.53-1.55,3.09-2.32,4.68l0.93-0.36c0.24-0.09,1.13-0.45,2.66-1.08c0.02,0.12,0.05,0.23,0.09,0.33
		c0.05,0.12,0.1,0.22,0.17,0.33c-0.57,0.15-1.68,0.57-3.31,1.21c-0.15,0.06-0.29,0.11-0.43,0.17c-0.64,0.25-1.17,0.47-1.63,0.71
		c-0.02-0.12-0.05-0.23-0.09-0.35c-0.04-0.11-0.1-0.22-0.17-0.33c0.83-1.59,1.62-3.22,2.42-4.89l-2.29,0.9
		c-0.13,0.05-0.62,0.25-1.46,0.6c-0.02-0.12-0.05-0.24-0.09-0.35c-0.04-0.11-0.1-0.21-0.17-0.32
		C90.64,51.75,91.53,51.43,92.46,51.07z"/>
	<path class="st2" d="M94.96,59.57c0.24-0.03,0.48-0.07,0.74-0.1c0.15-0.02,0.3-0.04,0.45-0.06c0.88-0.12,1.68-0.24,2.38-0.42
		c0.02,0.24,0.04,0.45,0.06,0.65c0.07,0.54,0.19,1.11,0.27,1.7c0.13,0.94,0.13,1.62-0.23,2.24c-0.39,0.66-1.12,1.11-2.07,1.24
		c-1.99,0.27-3.15-0.74-3.46-3.02c-0.08-0.57-0.12-1.04-0.17-1.42c-0.03-0.23-0.07-0.43-0.1-0.6
		C93.48,59.77,94.18,59.68,94.96,59.57z M93.56,61.62c0.2,1.45,1.12,2.08,2.75,1.86c1.66-0.23,2.22-0.98,2.01-2.5
		c-0.02-0.11-0.05-0.3-0.09-0.56c-0.82,0.09-1.7,0.2-2.63,0.33c-0.66,0.09-1.35,0.19-2.07,0.3C93.53,61.26,93.54,61.45,93.56,61.62z
		"/>
	<path class="st2" d="M95.52,67.83l-0.01,0.11c-0.67,0.11-1.06,0.54-1.1,1.17c-0.03,0.58,0.29,0.96,0.79,0.99
		c0.5,0.03,0.72-0.32,1.08-0.91c0.6-0.98,1-1.51,1.94-1.45c0.98,0.06,1.67,0.85,1.6,2.08c-0.03,0.51-0.18,0.94-0.48,1.32
		c-0.33-0.14-0.64-0.25-0.91-0.33l0.01-0.09c0.51-0.14,0.84-0.56,0.88-1.08c0.03-0.5-0.25-0.84-0.69-0.87
		c-0.46-0.03-0.68,0.28-1.03,0.86c-0.31,0.52-0.51,0.96-0.78,1.19c-0.33,0.28-0.7,0.41-1.16,0.38c-1.13-0.07-1.84-0.93-1.77-2.23
		c0.04-0.65,0.19-1.14,0.49-1.48C94.71,67.6,95.09,67.72,95.52,67.83z"/>
	<path class="st2" d="M51.58,94.5c0.76-0.73,1.44-1.42,2-2.08c0.14,0.18,0.27,0.33,0.39,0.45c0.27,0.28,0.62,0.58,1,0.98
		c0.9,0.93,1,1.69,0.24,2.43c-0.86,0.83-1.79,0.68-2.88-0.44c-0.06-0.07-0.12-0.14-0.19-0.21l-0.89,0.86
		c-0.12,0.11-0.4,0.43-0.84,0.94c-0.15-0.19-0.3-0.37-0.46-0.54c-0.16-0.17-0.33-0.32-0.51-0.47C50.15,95.86,50.85,95.21,51.58,94.5
		z M54.25,95.35c0.53-0.51,0.56-0.98,0.12-1.44c-0.06-0.06-0.12-0.12-0.19-0.18c-0.25,0.19-0.49,0.39-0.71,0.61l-1,0.97
		C53.09,95.96,53.61,95.98,54.25,95.35z"/>
	<path class="st2" d="M61.26,98.74c1.78,0.89,2.28,2.36,1.43,4.06c-0.8,1.61-2.45,2.11-4.18,1.25c-1.85-0.92-2.38-2.36-1.56-4.02
		C57.8,98.33,59.4,97.82,61.26,98.74z M58.72,103.62c0.99,0.49,2.03,0,2.75-1.43c0.72-1.45,0.48-2.57-0.5-3.07
		c-1-0.5-2.05,0.01-2.76,1.44C57.49,101.99,57.71,103.12,58.72,103.62z"/>
	<path class="st2" d="M67.29,103.85c0.08-1.07,0.13-2.04,0.12-2.88c0.23,0.05,0.47,0.09,0.7,0.11c0.24,0.02,0.47,0.02,0.71,0
		c-0.14,0.85-0.24,1.81-0.33,2.87c-0.07,0.91-0.12,1.66-0.12,2.27c0.6,0.03,1.24,0.05,1.92,0.03c-0.03,0.11-0.04,0.22-0.05,0.35
		c-0.01,0.12-0.01,0.24,0,0.36c-0.63-0.08-1.21-0.15-1.73-0.19c-0.48-0.04-0.99-0.05-1.55-0.06
		C67.12,105.78,67.21,104.83,67.29,103.85z"/>
	<path class="st2" d="M74.84,103.7c-0.23-1.05-0.46-2-0.71-2.79c0.25-0.02,0.49-0.06,0.73-0.11c0.24-0.05,0.47-0.12,0.7-0.21
		c0.11,0.85,0.3,1.8,0.53,2.83c0.22,0.99,0.43,1.92,0.71,2.79c-0.24,0.03-0.49,0.06-0.72,0.11c-0.24,0.05-0.47,0.12-0.71,0.2
		C75.25,105.57,75.05,104.64,74.84,103.7z"/>
	<path class="st2" d="M83.29,98.58c-0.45-0.42-1.11-0.44-1.81-0.03c-1.04,0.61-1.21,1.73-0.42,3.07c0.84,1.43,1.9,1.83,3.03,1.17
		c0.46-0.27,0.88-0.76,1.09-1.37l0.1-0.03l0.19,0.71c-0.33,0.5-0.77,0.9-1.32,1.23c-1.71,1.01-3.26,0.62-4.22-1
		c-0.9-1.53-0.43-3.2,1.3-4.22c0.54-0.32,1.15-0.51,1.82-0.59c0.08,0.35,0.19,0.68,0.33,0.99L83.29,98.58z"/>
	<path class="st2" d="M87.1,96.82c-0.11-0.1-0.2-0.19-0.31-0.29c-0.66-0.61-1.27-1.16-1.88-1.6c0.42-0.42,0.81-0.82,1.17-1.22
		c0.37-0.4,0.71-0.79,1.03-1.17c0.08,0.09,0.16,0.19,0.24,0.27c0.09,0.08,0.18,0.15,0.28,0.22c-0.55,0.52-1.01,0.96-1.35,1.33
		c0.19,0.21,0.4,0.4,0.6,0.58c0.1,0.09,0.2,0.18,0.3,0.27l0.42,0.39c0.43-0.51,0.85-0.99,1.23-1.43c0.07,0.09,0.14,0.18,0.24,0.27
		c0.09,0.08,0.18,0.15,0.29,0.22c-0.53,0.51-0.98,0.95-1.34,1.33l0.74,0.69c0.35,0.32,0.63,0.58,0.85,0.74
		c0.33-0.38,0.73-0.88,1.19-1.47c0.07,0.09,0.14,0.17,0.22,0.24c0.1,0.09,0.21,0.17,0.32,0.25c-0.64,0.65-1.11,1.14-1.41,1.47
		c-0.28,0.3-0.55,0.61-0.8,0.93C88.6,98.2,87.89,97.55,87.1,96.82z"/>
</g>
</svg>
